BOTH	BOTH	NODE	EDGE	EDGE	NODE
STRING	STRING	INT	INT	INT	STRING
Operation	Type	NodeId	From	To	VType
add	Node	0
add	Node	1
add	Node	2
add	Node	3
add	Node	4
add	Node	5
add	Node	6
add	Node	7
add	Node	8
add	Node	9
add	Node	10
add	Node	11
add	Node	12
add	Node	13
add	Node	14
add	Node	15
add	Node	16
add	Node	17
add	Node	18
add	Node	19
add	Node	20
add	Node	21
add	Node	22
add	Node	23
add	Node	24
add	Node	25
add	Node	26
add	Node	27
add	Node	28
add	Node	29
add	Node	30
add	Node	31
add	Node	32
add	Node	33
add	Node	34
add	Node	35
add	Node	36
add	Node	37
add	Node	38
add	Node	39
add	Node	40
add	Node	41
add	Node	42
add	Node	43
add	Node	44
add	Node	45
add	Node	46
add	Node	47
add	Node	48
add	Node	49
add	Node	50
add	Node	51
add	Node	52
add	Node	53
add	Node	54
add	Node	55
add	Node	56
add	Node	57
add	Node	58
add	Node	59
add	Node	60
add	Node	61
add	Node	62
add	Node	63
add	Node	64
add	Node	65
add	Node	66
add	Node	67
add	Node	68
add	Node	69
add	Node	70
add	Node	71
add	Node	72
add	Node	73
add	Node	74
add	Node	75
add	Node	76
add	Node	77
add	Node	78
add	Node	79
add	Node	80
add	Node	81
add	Node	82
add	Node	83
add	Node	84
add	Node	85
add	Node	86
add	Node	87
add	Node	88
add	Node	89
add	Node	90
add	Node	91
add	Node	92
add	Node	93
add	Node	94
add	Node	95
add	Node	96
add	Node	97
add	Node	98
add	Node	99
add	Node	100
add	Node	101
add	Node	102
add	Node	103
add	Node	104
add	Node	105
add	Node	106
add	Node	107
add	Node	108
add	Node	109
add	Node	110
add	Node	111
add	Node	112
add	Node	113
add	Node	114
add	Node	115
add	Node	116
add	Node	117
add	Node	118
add	Node	119
add	Node	120
add	Node	121
add	Node	122
add	Node	123
add	Node	124
add	Node	125
add	Node	126
add	Node	127
add	Node	128
add	Node	129
add	Node	130
add	Node	131
add	Node	132
add	Node	133
add	Node	134
add	Node	135
add	Node	136
add	Node	137
add	Node	138
add	Node	139
add	Node	140
add	Node	141
add	Node	142
add	Node	143
add	Node	144
add	Node	145
add	Node	146
add	Node	147
add	Node	148
add	Node	149
add	Node	150
add	Node	151
add	Node	152
add	Node	153
add	Node	154
add	Node	155
add	Node	156
add	Node	157
add	Node	158
add	Node	159
add	Node	160
add	Node	161
add	Node	162
add	Node	163
add	Node	164
add	Node	165
add	Node	166
add	Node	167
add	Node	168
add	Node	169
add	Node	170
add	Node	171
add	Node	172
add	Node	173
add	Node	174
add	Node	175
add	Node	176
add	Node	177
add	Node	178
add	Node	179
add	Node	180
add	Node	181
add	Node	182
add	Node	183
add	Node	184
add	Node	185
add	Node	186
add	Node	187
add	Node	188
add	Node	189
add	Node	190
add	Node	191
add	Node	192
add	Node	193
add	Node	194
add	Node	195
add	Node	196
add	Node	197
add	Node	198
add	Node	199
add	Node	200
add	Node	201
add	Node	202
add	Node	203
add	Node	204
add	Node	205
add	Node	206
add	Node	207
add	Node	208
add	Node	209
add	Node	210
add	Node	211
add	Node	212
add	Node	213
add	Node	214
add	Node	215
add	Node	216
add	Node	217
add	Node	218
add	Node	219
add	Node	220
add	Node	221
add	Node	222
add	Node	223
add	Node	224
add	Node	225
add	Node	226
add	Node	227
add	Node	228
add	Node	229
add	Node	230
add	Node	231
add	Node	232
add	Node	233
add	Node	234
add	Node	235
add	Node	236
add	Node	237
add	Node	238
add	Node	239
add	Node	240
add	Node	241
add	Node	242
add	Node	243
add	Node	244
add	Node	245
add	Node	246
add	Node	247
add	Node	248
add	Node	249
add	Node	250
add	Node	251
add	Node	252
add	Node	253
add	Node	254
add	Node	255
add	Node	256
add	Node	257
add	Node	258
add	Node	259
add	Node	260
add	Node	261
add	Node	262
add	Node	263
add	Node	264
add	Node	265
add	Node	266
add	Node	267
add	Node	268
add	Node	269
add	Node	270
add	Node	271
add	Node	272
add	Node	273
add	Node	274
add	Node	275
add	Node	276
add	Node	277
add	Node	278
add	Node	279
add	Node	280
add	Node	281
add	Node	282
add	Node	283
add	Node	284
add	Node	285
add	Node	286
add	Node	287
add	Node	288
add	Node	289
add	Node	290
add	Node	291
add	Node	292
add	Node	293
add	Node	294
add	Node	295
add	Node	296
add	Node	297
add	Node	298
add	Node	299
add	Node	300
add	Node	301
add	Node	302
add	Node	303
add	Node	304
add	Node	305
add	Node	306
add	Node	307
add	Node	308
add	Node	309
add	Node	310
add	Node	311
add	Node	312
add	Node	313
add	Node	314
add	Node	315
add	Node	316
add	Node	317
add	Node	318
add	Node	319
add	Node	320
add	Node	321
add	Node	322
add	Node	323
add	Node	324
add	Node	325
add	Node	326
add	Node	327
add	Node	328
add	Node	329
add	Node	330
add	Node	331
add	Node	332
add	Node	333
add	Node	334
add	Node	335
add	Node	336
add	Node	337
add	Node	338
add	Node	339
add	Node	340
add	Node	341
add	Node	342
add	Node	343
add	Node	344
add	Node	345
add	Node	346
add	Node	347
add	Node	348
add	Node	349
add	Node	350
add	Node	351
add	Node	352
add	Node	353
add	Node	354
add	Node	355
add	Node	356
add	Node	357
add	Node	358
add	Node	359
add	Node	360
add	Node	361
add	Node	362
add	Node	363
add	Node	364
add	Node	365
add	Node	366
add	Node	367
add	Node	368
add	Node	369
add	Node	370
add	Node	371
add	Node	372
add	Node	373
add	Node	374
add	Node	375
add	Node	376
add	Node	377
add	Node	378
add	Node	379
add	Node	380
add	Node	381
add	Node	382
add	Node	383
add	Node	384
add	Node	385
add	Node	386
add	Node	387
add	Node	388
add	Node	389
add	Node	390
add	Node	391
add	Node	392
add	Node	393
add	Node	394
add	Node	395
add	Node	396
add	Node	397
add	Node	398
add	Node	399
add	Node	400
add	Node	401
add	Node	402
add	Node	403
add	Node	404
add	Node	405
add	Node	406
add	Node	407
add	Node	408
add	Node	409
add	Node	410
add	Node	411
add	Node	412
add	Node	413
add	Node	414
add	Node	415
add	Node	416
add	Node	417
add	Node	418
add	Node	419
add	Node	420
add	Node	421
add	Node	422
add	Node	423
add	Node	424
add	Node	425
add	Node	426
add	Node	427
add	Node	428
add	Node	429
add	Node	430
add	Node	431
add	Node	432
add	Node	433
add	Node	434
add	Node	435
add	Node	436
add	Node	437
add	Node	438
add	Node	439
add	Node	440
add	Node	441
add	Node	442
add	Node	443
add	Node	444
add	Node	445
add	Node	446
add	Node	447
add	Node	448
add	Node	449
add	Node	450
add	Node	451
add	Node	452
add	Node	453
add	Node	454
add	Node	455
add	Node	456
add	Node	457
add	Node	458
add	Node	459
add	Node	460
add	Node	461
add	Node	462
add	Node	463
add	Node	464
add	Node	465
add	Node	466
add	Node	467
add	Node	468
add	Node	469
add	Node	470
add	Node	471
add	Node	472
add	Node	473
add	Node	474
add	Node	475
add	Node	476
add	Node	477
add	Node	478
add	Node	479
add	Node	480
add	Node	481
add	Node	482
add	Node	483
add	Node	484
add	Node	485
add	Node	486
add	Node	487
add	Node	488
add	Node	489
add	Node	490
add	Node	491
add	Node	492
add	Node	493
add	Node	494
add	Node	495
add	Node	496
add	Node	497
add	Node	498
add	Node	499
add	Node	500
add	Node	501
add	Node	502
add	Node	503
add	Node	504
add	Node	505
add	Node	506
add	Node	507
add	Node	508
add	Node	509
add	Node	510
add	Node	511
add	Node	512
add	Node	513
add	Node	514
add	Node	515
add	Node	516
add	Node	517
add	Node	518
add	Node	519
add	Node	520
add	Node	521
add	Node	522
add	Node	523
add	Node	524
add	Node	525
add	Node	526
add	Node	527
add	Node	528
add	Node	529
add	Node	530
add	Node	531
add	Node	532
add	Node	533
add	Node	534
add	Node	535
add	Node	536
add	Node	537
add	Node	538
add	Node	539
add	Node	540
add	Node	541
add	Node	542
add	Node	543
add	Node	544
add	Node	545
add	Node	546
add	Node	547
add	Node	548
add	Node	549
add	Node	550
add	Node	551
add	Node	552
add	Node	553
add	Node	554
add	Node	555
add	Node	556
add	Node	557
add	Node	558
add	Node	559
add	Node	560
add	Node	561
add	Node	562
add	Node	563
add	Node	564
add	Node	565
add	Node	566
add	Node	567
add	Node	568
add	Node	569
add	Node	570
add	Node	571
add	Node	572
add	Node	573
add	Node	574
add	Node	575
add	Node	576
add	Node	577
add	Node	578
add	Node	579
add	Node	580
add	Node	581
add	Node	582
add	Node	583
add	Node	584
add	Node	585
add	Node	586
add	Node	587
add	Node	588
add	Node	589
add	Node	590
add	Node	591
add	Node	592
add	Node	593
add	Node	594
add	Node	595
add	Node	596
add	Node	597
add	Node	598
add	Node	599
add	Node	600
add	Node	601
add	Node	602
add	Node	603
add	Node	604
add	Node	605
add	Node	606
add	Node	607
add	Node	608
add	Node	609
add	Node	610
add	Node	611
add	Node	612
add	Node	613
add	Node	614
add	Node	615
add	Node	616
add	Node	617
add	Node	618
add	Node	619
add	Node	620
add	Node	621
add	Node	622
add	Node	623
add	Node	624
add	Node	625
add	Node	626
add	Node	627
add	Node	628
add	Node	629
add	Node	630
add	Node	631
add	Node	632
add	Node	633
add	Node	634
add	Node	635
add	Node	636
add	Node	637
add	Node	638
add	Node	639
add	Node	640
add	Node	641
add	Node	642
add	Node	643
add	Node	644
add	Node	645
add	Node	646
add	Node	647
add	Node	648
add	Node	649
add	Node	650
add	Node	651
add	Node	652
add	Node	653
add	Node	654
add	Node	655
add	Node	656
add	Node	657
add	Node	658
add	Node	659
add	Node	660
add	Node	661
add	Node	662
add	Node	663
add	Node	664
add	Node	665
add	Node	666
add	Node	667
add	Node	668
add	Node	669
add	Node	670
add	Node	671
add	Node	672
add	Node	673
add	Node	674
add	Node	675
add	Node	676
add	Node	677
add	Node	678
add	Node	679
add	Node	680
add	Node	681
add	Node	682
add	Node	683
add	Node	684
add	Node	685
add	Node	686
add	Node	687
add	Node	688
add	Node	689
add	Node	690
add	Node	691
add	Node	692
add	Node	693
add	Node	694
add	Node	695
add	Node	696
add	Node	697
add	Node	698
add	Node	699
add	Node	700
add	Node	701
add	Node	702
add	Node	703
add	Node	704
add	Node	705
add	Node	706
add	Node	707
add	Node	708
add	Node	709
add	Node	710
add	Node	711
add	Node	712
add	Node	713
add	Node	714
add	Node	715
add	Node	716
add	Node	717
add	Node	718
add	Node	719
add	Node	720
add	Node	721
add	Node	722
add	Node	723
add	Node	724
add	Node	725
add	Node	726
add	Node	727
add	Node	728
add	Node	729
add	Node	730
add	Node	731
add	Node	732
add	Node	733
add	Node	734
add	Node	735
add	Node	736
add	Node	737
add	Node	738
add	Node	739
add	Node	740
add	Node	741
add	Node	742
add	Node	743
add	Node	744
add	Node	745
add	Node	746
add	Node	747
add	Node	748
add	Node	749
add	Node	750
add	Node	751
add	Node	752
add	Node	753
add	Node	754
add	Node	755
add	Node	756
add	Node	757
add	Node	758
add	Node	759
add	Node	760
add	Node	761
add	Node	762
add	Node	763
add	Node	764
add	Node	765
add	Node	766
add	Node	767
add	Node	768
add	Node	769
add	Node	770
add	Node	771
add	Node	772
add	Node	773
add	Node	774
add	Node	775
add	Node	776
add	Node	777
add	Node	778
add	Node	779
add	Node	780
add	Node	781
add	Node	782
add	Node	783
add	Node	784
add	Node	785
add	Node	786
add	Node	787
add	Node	788
add	Node	789
add	Node	790
add	Node	791
add	Node	792
add	Node	793
add	Node	794
add	Node	795
add	Node	796
add	Node	797
add	Node	798
add	Node	799
add	Node	800
add	Node	801
add	Node	802
add	Node	803
add	Node	804
add	Node	805
add	Node	806
add	Node	807
add	Node	808
add	Node	809
add	Node	810
add	Node	811
add	Node	812
add	Node	813
add	Node	814
add	Node	815
add	Node	816
add	Node	817
add	Node	818
add	Node	819
add	Node	820
add	Node	821
add	Node	822
add	Node	823
add	Node	824
add	Node	825
add	Node	826
add	Node	827
add	Node	828
add	Node	829
add	Node	830
add	Node	831
add	Node	832
add	Node	833
add	Node	834
add	Node	835
add	Node	836
add	Node	837
add	Node	838
add	Node	839
add	Node	840
add	Node	841
add	Node	842
add	Node	843
add	Node	844
add	Node	845
add	Node	846
add	Node	847
add	Node	848
add	Node	849
add	Node	850
add	Node	851
add	Node	852
add	Node	853
add	Node	854
add	Node	855
add	Node	856
add	Node	857
add	Node	858
add	Node	859
add	Node	860
add	Node	861
add	Node	862
add	Node	863
add	Node	864
add	Node	865
add	Node	866
add	Node	867
add	Node	868
add	Node	869
add	Node	870
add	Node	871
add	Node	872
add	Node	873
add	Node	874
add	Node	875
add	Node	876
add	Node	877
add	Node	878
add	Node	879
add	Node	880
add	Node	881
add	Node	882
add	Node	883
add	Node	884
add	Node	885
add	Node	886
add	Node	887
add	Node	888
add	Node	889
add	Node	890
add	Node	891
add	Node	892
add	Node	893
add	Node	894
add	Node	895
add	Node	896
add	Node	897
add	Node	898
add	Node	899
add	Node	900
add	Node	901
add	Node	902
add	Node	903
add	Node	904
add	Node	905
add	Node	906
add	Node	907
add	Node	908
add	Node	909
add	Node	910
add	Node	911
add	Node	912
add	Node	913
add	Node	914
add	Node	915
add	Node	916
add	Node	917
add	Node	918
add	Node	919
add	Node	920
add	Node	921
add	Node	922
add	Node	923
add	Node	924
add	Node	925
add	Node	926
add	Node	927
add	Node	928
add	Node	929
add	Node	930
add	Node	931
add	Node	932
add	Node	933
add	Node	934
add	Node	935
add	Node	936
add	Node	937
add	Node	938
add	Node	939
add	Node	940
add	Node	941
add	Node	942
add	Node	943
add	Node	944
add	Node	945
add	Node	946
add	Node	947
add	Node	948
add	Node	949
add	Node	950
add	Node	951
add	Node	952
add	Node	953
add	Node	954
add	Node	955
add	Node	956
add	Node	957
add	Node	958
add	Node	959
add	Node	960
add	Node	961
add	Node	962
add	Node	963
add	Node	964
add	Node	965
add	Node	966
add	Node	967
add	Node	968
add	Node	969
add	Node	970
add	Node	971
add	Node	972
add	Node	973
add	Node	974
add	Node	975
add	Node	976
add	Node	977
add	Node	978
add	Node	979
add	Node	980
add	Node	981
add	Node	982
add	Node	983
add	Node	984
add	Node	985
add	Node	986
add	Node	987
add	Node	988
add	Node	989
add	Node	990
add	Node	991
add	Node	992
add	Node	993
add	Node	994
add	Node	995
add	Node	996
add	Node	997
add	Node	998
add	Node	999
add	Node	1000
add	Node	1001
add	Node	1002
add	Node	1003
add	Node	1004
add	Node	1005
add	Node	1006
add	Node	1007
add	Node	1008
add	Node	1009
add	Node	1010
add	Node	1011
add	Node	1012
add	Node	1013
add	Node	1014
add	Node	1015
add	Node	1016
add	Node	1017
add	Node	1018
add	Node	1019
add	Node	1020
add	Node	1021
add	Node	1022
add	Node	1023
add	Node	1024
add	Node	1025
add	Node	1026
add	Node	1027
add	Node	1028
add	Node	1029
add	Node	1030
add	Node	1031
add	Node	1032
add	Node	1033
add	Node	1034
add	Node	1035
add	Node	1036
add	Node	1037
add	Node	1038
add	Node	1039
add	Node	1040
add	Node	1041
add	Node	1042
add	Node	1043
add	Node	1044
add	Node	1045
add	Node	1046
add	Node	1047
add	Node	1048
add	Node	1049
add	Node	1050
add	Node	1051
add	Node	1052
add	Node	1053
add	Node	1054
add	Node	1055
add	Node	1056
add	Node	1057
add	Node	1058
add	Node	1059
add	Node	1060
add	Node	1061
add	Node	1062
add	Node	1063
add	Node	1064
add	Node	1065
add	Node	1066
add	Node	1067
add	Node	1068
add	Node	1069
add	Node	1070
add	Node	1071
add	Node	1072
add	Node	1073
add	Node	1074
add	Node	1075
add	Node	1076
add	Node	1077
add	Node	1078
add	Node	1079
add	Node	1080
add	Node	1081
add	Node	1082
add	Node	1083
add	Node	1084
add	Node	1085
add	Node	1086
add	Node	1087
add	Node	1088
add	Node	1089
add	Node	1090
add	Node	1091
add	Node	1092
add	Node	1093
add	Node	1094
add	Node	1095
add	Node	1096
add	Node	1097
add	Node	1098
add	Node	1099
add	Node	1100
add	Node	1101
add	Node	1102
add	Node	1103
add	Node	1104
add	Node	1105
add	Node	1106
add	Node	1107
add	Node	1108
add	Node	1109
add	Node	1110
add	Node	1111
add	Node	1112
add	Node	1113
add	Node	1114
add	Node	1115
add	Node	1116
add	Node	1117
add	Node	1118
add	Node	1119
add	Node	1120
add	Node	1121
add	Node	1122
add	Node	1123
add	Node	1124
add	Node	1125
add	Node	1126
add	Node	1127
add	Node	1128
add	Node	1129
add	Node	1130
add	Node	1131
add	Node	1132
add	Node	1133
add	Node	1134
add	Node	1135
add	Node	1136
add	Node	1137
add	Node	1138
add	Node	1139
add	Node	1140
add	Node	1141
add	Node	1142
add	Node	1143
add	Node	1144
add	Node	1145
add	Node	1146
add	Node	1147
add	Node	1148
add	Node	1149
add	Node	1150
add	Node	1151
add	Node	1152
add	Node	1153
add	Node	1154
add	Node	1155
add	Node	1156
add	Node	1157
add	Node	1158
add	Node	1159
add	Node	1160
add	Node	1161
add	Node	1162
add	Node	1163
add	Node	1164
add	Node	1165
add	Node	1166
add	Node	1167
add	Node	1168
add	Node	1169
add	Node	1170
add	Node	1171
add	Node	1172
add	Node	1173
add	Node	1174
add	Node	1175
add	Node	1176
add	Node	1177
add	Node	1178
add	Node	1179
add	Node	1180
add	Node	1181
add	Node	1182
add	Node	1183
add	Node	1184
add	Node	1185
add	Node	1186
add	Node	1187
add	Node	1188
add	Node	1189
add	Node	1190
add	Node	1191
add	Node	1192
add	Node	1193
add	Node	1194
add	Node	1195
add	Node	1196
add	Node	1197
add	Node	1198
add	Node	1199
add	Node	1200
add	Node	1201
add	Node	1202
add	Node	1203
add	Node	1204
add	Node	1205
add	Node	1206
add	Node	1207
add	Node	1208
add	Node	1209
add	Node	1210
add	Node	1211
add	Node	1212
add	Node	1213
add	Node	1214
add	Node	1215
add	Node	1216
add	Node	1217
add	Node	1218
add	Node	1219
add	Node	1220
add	Node	1221
add	Node	1222
add	Node	1223
add	Node	1224
add	Node	1225
add	Node	1226
add	Node	1227
add	Node	1228
add	Node	1229
add	Node	1230
add	Node	1231
add	Node	1232
add	Node	1233
add	Node	1234
add	Node	1235
add	Node	1236
add	Node	1237
add	Node	1238
add	Node	1239
add	Node	1240
add	Node	1241
add	Node	1242
add	Node	1243
add	Node	1244
add	Node	1245
add	Node	1246
add	Node	1247
add	Node	1248
add	Node	1249
add	Node	1250
add	Node	1251
add	Node	1252
add	Node	1253
add	Node	1254
add	Node	1255
add	Node	1256
add	Node	1257
add	Node	1258
add	Node	1259
add	Node	1260
add	Node	1261
add	Node	1262
add	Node	1263
add	Node	1264
add	Node	1265
add	Node	1266
add	Node	1267
add	Node	1268
add	Node	1269
add	Node	1270
add	Node	1271
add	Node	1272
add	Node	1273
add	Node	1274
add	Node	1275
add	Node	1276
add	Node	1277
add	Node	1278
add	Node	1279
add	Node	1280
add	Node	1281
add	Node	1282
add	Node	1283
add	Node	1284
add	Node	1285
add	Node	1286
add	Node	1287
add	Node	1288
add	Node	1289
add	Node	1290
add	Node	1291
add	Node	1292
add	Node	1293
add	Node	1294
add	Node	1295
add	Node	1296
add	Node	1297
add	Node	1298
add	Node	1299
add	Node	1300
add	Node	1301
add	Node	1302
add	Node	1303
add	Node	1304
add	Node	1305
add	Node	1306
add	Node	1307
add	Node	1308
add	Node	1309
add	Node	1310
add	Node	1311
add	Node	1312
add	Node	1313
add	Node	1314
add	Node	1315
add	Node	1316
add	Node	1317
add	Node	1318
add	Node	1319
add	Node	1320
add	Node	1321
add	Node	1322
add	Node	1323
add	Node	1324
add	Node	1325
add	Node	1326
add	Node	1327
add	Node	1328
add	Node	1329
add	Node	1330
add	Node	1331
add	Node	1332
add	Node	1333
add	Node	1334
add	Node	1335
add	Node	1336
add	Node	1337
add	Node	1338
add	Node	1339
add	Node	1340
add	Node	1341
add	Node	1342
add	Node	1343
add	Node	1344
add	Node	1345
add	Node	1346
add	Node	1347
add	Node	1348
add	Node	1349
add	Node	1350
add	Node	1351
add	Node	1352
add	Node	1353
add	Node	1354
add	Node	1355
add	Node	1356
add	Node	1357
add	Node	1358
add	Node	1359
add	Node	1360
add	Node	1361
add	Node	1362
add	Node	1363
add	Node	1364
add	Node	1365
add	Node	1366
add	Node	1367
add	Node	1368
add	Node	1369
add	Node	1370
add	Node	1371
add	Node	1372
add	Node	1373
add	Node	1374
add	Node	1375
add	Node	1376
add	Node	1377
add	Node	1378
add	Node	1379
add	Node	1380
add	Node	1381
add	Node	1382
add	Node	1383
add	Node	1384
add	Node	1385
add	Node	1386
add	Node	1387
add	Node	1388
add	Node	1389
add	Node	1390
add	Node	1391
add	Node	1392
add	Node	1393
add	Node	1394
add	Node	1395
add	Node	1396
add	Node	1397
add	Node	1398
add	Node	1399
add	Node	1400
add	Node	1401
add	Node	1402
add	Node	1403
add	Node	1404
add	Node	1405
add	Node	1406
add	Node	1407
add	Node	1408
add	Node	1409
add	Node	1410
add	Node	1411
add	Node	1412
add	Node	1413
add	Node	1414
add	Node	1415
add	Node	1416
add	Node	1417
add	Node	1418
add	Node	1419
add	Node	1420
add	Node	1421
add	Node	1422
add	Node	1423
add	Node	1424
add	Node	1425
add	Node	1426
add	Node	1427
add	Node	1428
add	Node	1429
add	Node	1430
add	Node	1431
add	Node	1432
add	Node	1433
add	Node	1434
add	Node	1435
add	Node	1436
add	Node	1437
add	Node	1438
add	Node	1439
add	Node	1440
add	Node	1441
add	Node	1442
add	Node	1443
add	Node	1444
add	Node	1445
add	Node	1446
add	Node	1447
add	Node	1448
add	Node	1449
add	Node	1450
add	Node	1451
add	Node	1452
add	Node	1453
add	Node	1454
add	Node	1455
add	Node	1456
add	Node	1457
add	Node	1458
add	Node	1459
add	Node	1460
add	Node	1461
add	Node	1462
add	Node	1463
add	Node	1464
add	Node	1465
add	Node	1466
add	Node	1467
add	Node	1468
add	Node	1469
add	Node	1470
add	Node	1471
add	Node	1472
add	Node	1473
add	Node	1474
add	Node	1475
add	Node	1476
add	Node	1477
add	Node	1478
add	Node	1479
add	Node	1480
add	Node	1481
add	Node	1482
add	Node	1483
add	Node	1484
add	Node	1485
add	Node	1486
add	Node	1487
add	Node	1488
add	Node	1489
add	Node	1490
add	Node	1491
add	Node	1492
add	Node	1493
add	Node	1494
add	Node	1495
add	Node	1496
add	Node	1497
add	Node	1498
add	Node	1499
add	Node	1500
add	Node	1501
add	Node	1502
add	Node	1503
add	Node	1504
add	Node	1505
add	Node	1506
add	Node	1507
add	Node	1508
add	Node	1509
add	Node	1510
add	Node	1511
add	Node	1512
add	Node	1513
add	Node	1514
add	Node	1515
add	Node	1516
add	Node	1517
add	Node	1518
add	Node	1519
add	Node	1520
add	Node	1521
add	Node	1522
add	Node	1523
add	Node	1524
add	Node	1525
add	Node	1526
add	Node	1527
add	Node	1528
add	Node	1529
add	Node	1530
add	Node	1531
add	Node	1532
add	Node	1533
add	Node	1534
add	Node	1535
add	Node	1536
add	Node	1537
add	Node	1538
add	Node	1539
add	Node	1540
add	Node	1541
add	Node	1542
add	Node	1543
add	Node	1544
add	Node	1545
add	Node	1546
add	Node	1547
add	Node	1548
add	Node	1549
add	Node	1550
add	Node	1551
add	Node	1552
add	Node	1553
add	Node	1554
add	Node	1555
add	Node	1556
add	Node	1557
add	Node	1558
add	Node	1559
add	Node	1560
add	Node	1561
add	Node	1562
add	Node	1563
add	Node	1564
add	Node	1565
add	Node	1566
add	Node	1567
add	Node	1568
add	Node	1569
add	Node	1570
add	Node	1571
add	Node	1572
add	Node	1573
add	Node	1574
add	Node	1575
add	Node	1576
add	Node	1577
add	Node	1578
add	Node	1579
add	Node	1580
add	Node	1581
add	Node	1582
add	Node	1583
add	Node	1584
add	Node	1585
add	Node	1586
add	Node	1587
add	Node	1588
add	Node	1589
add	Node	1590
add	Node	1591
add	Node	1592
add	Node	1593
add	Node	1594
add	Node	1595
add	Node	1596
add	Node	1597
add	Node	1598
add	Node	1599
add	Edge		288	287
add	Edge		963	923
add	Edge		529	528
add	Edge		423	383
add	Edge		1197	1237
add	Edge		1335	1334
add	Edge		605	645
add	Edge		606	646
add	Edge		964	924
add	Edge		1456	1496
add	Edge		965	925
add	Edge		647	607
add	Edge		1430	1431
add	Edge		1350	1390
add	Edge		1123	1122
add	Edge		749	789
add	Edge		1528	1527
add	Edge		922	962
add	Edge		1144	1104
add	Edge		768	808
add	Edge		1031	991
add	Edge		196	156
add	Edge		36	37
add	Edge		1401	1441
add	Edge		1412	1411
add	Edge		1199	1159
add	Edge		0	40
add	Edge		1546	1547
add	Edge		1422	1423
add	Edge		769	770
add	Edge		1354	1353
add	Edge		1028	988
add	Edge		63	23
add	Edge		593	592
add	Edge		241	242
add	Edge		834	833
add	Edge		823	822
add	Edge		351	350
add	Edge		735	736
add	Edge		253	252
add	Edge		582	581
add	Edge		1097	1137
add	Edge		143	144
add	Edge		921	920
add	Edge		626	627
add	Edge		869	868
add	Edge		484	483
add	Edge		637	638
add	Edge		155	154
add	Edge		396	397
add	Edge		386	385
add	Edge		966	967
add	Edge		690	691
add	Edge		300	299
add	Edge		932	931
add	Edge		55	95
add	Edge		1070	1069
add	Edge		977	978
add	Edge		494	495
add	Edge		725	724
add	Edge		35	75
add	Edge		262	261
add	Edge		712	711
add	Edge		616	656
add	Edge		953	913
add	Edge		199	159
add	Edge		298	299
add	Edge		900	901
add	Edge		764	804
add	Edge		952	912
add	Edge		739	699
add	Edge		1304	1344
add	Edge		1230	1270
add	Edge		1514	1474
add	Edge		263	223
add	Edge		185	145
add	Edge		617	657
add	Edge		198	158
add	Edge		331	291
add	Edge		210	250
add	Edge		1104	1103
add	Edge		1253	1254
add	Edge		1111	1151
add	Edge		1447	1446
add	Edge		1328	1327
add	Edge		240	200
add	Edge		900	940
add	Edge		910	950
add	Edge		211	251
add	Edge		1529	1530
add	Edge		186	146
add	Edge		648	608
add	Edge		762	802
add	Edge		580	540
add	Edge		197	157
add	Edge		262	222
add	Edge		43	83
add	Edge		1041	1042
add	Edge		1116	1115
add	Edge		295	335
add	Edge		1309	1308
add	Edge		1442	1441
add	Edge		1315	1316
add	Edge		669	709
add	Edge		766	806
add	Edge		618	658
add	Edge		619	659
add	Edge		911	951
add	Edge		360	400
add	Edge		1016	1056
add	Edge		1225	1265
add	Edge		1418	1458
add	Edge		1544	1584
add	Edge		1568	1528
add	Edge		1375	1335
add	Edge		1209	1249
add	Edge		470	510
add	Edge		1142	1141
add	Edge		965	1005
add	Edge		1216	1215
add	Edge		1563	1523
add	Edge		1196	1197
add	Edge		1161	1160
add	Edge		1022	1023
add	Edge		1244	1204
add	Edge		1009	1008
add	Edge		8	48
add	Edge		1234	1235
add	Edge		518	478
add	Edge		1029	989
add	Edge		274	314
add	Edge		382	422
add	Edge		1312	1311
add	Edge		1004	1003
add	Edge		1127	1128
add	Edge		1522	1523
add	Edge		330	329
add	Edge		1572	1573
add	Edge		11	51
add	Edge		292	332
add	Edge		1016	1015
add	Edge		1461	1460
add	Edge		1363	1362
add	Edge		1535	1534
add	Edge		703	663
add	Edge		1415	1416
add	Edge		1341	1342
add	Edge		1208	1209
add	Edge		1035	1034
add	Edge		1061	1060
add	Edge		1370	1330
add	Edge		230	229
add	Edge		803	763
add	Edge		1051	1011
add	Edge		1367	1407
add	Edge		1228	1227
add	Edge		210	209
add	Edge		1204	1203
add	Edge		1511	1512
add	Edge		1553	1554
add	Edge		1323	1322
add	Edge		987	1027
add	Edge		109	110
add	Edge		807	767
add	Edge		290	330
add	Edge		669	670
add	Edge		421	381
add	Edge		1247	1287
add	Edge		1509	1508
add	Edge		1435	1434
add	Edge		294	334
add	Edge		1360	1361
add	Edge		738	698
add	Edge		1506	1546
add	Edge		124	84
add	Edge		1313	1353
add	Edge		559	519
add	Edge		1542	1541
add	Edge		1274	1314
add	Edge		1292	1332
add	Edge		1261	1260
add	Edge		518	558
add	Edge		1531	1530
add	Edge		1174	1214
add	Edge		1366	1406
add	Edge		28	29
add	Edge		61	62
add	Edge		1453	1454
add	Edge		1165	1164
add	Edge		410	409
add	Edge		1427	1428
add	Edge		1504	1505
add	Edge		1088	1087
add	Edge		1234	1194
add	Edge		1108	1068
add	Edge		480	440
add	Edge		866	826
add	Edge		872	832
add	Edge		946	906
add	Edge		456	496
add	Edge		1209	1210
add	Edge		888	848
add	Edge		293	333
add	Edge		873	833
add	Edge		231	271
add	Edge		481	441
add	Edge		889	849
add	Edge		442	482
add	Edge		1484	1483
add	Edge		887	847
add	Edge		945	905
add	Edge		529	569
add	Edge		455	495
add	Edge		871	831
add	Edge		1516	1515
add	Edge		272	232
add	Edge		1222	1223
add	Edge		979	1019
add	Edge		827	867
add	Edge		507	467
add	Edge		812	772
add	Edge		1532	1492
add	Edge		380	420
add	Edge		457	497
add	Edge		865	825
add	Edge		1507	1467
add	Edge		1291	1290
add	Edge		864	824
add	Edge		129	89
add	Edge		879	839
add	Edge		233	273
add	Edge		205	165
add	Edge		944	904
add	Edge		834	874
add	Edge		568	528
add	Edge		494	454
add	Edge		175	135
add	Edge		527	567
add	Edge		176	136
add	Edge		149	189
add	Edge		173	133
add	Edge		63	103
add	Edge		135	95
add	Edge		1071	1031
add	Edge		1402	1362
add	Edge		1262	1302
add	Edge		526	566
add	Edge		174	134
add	Edge		69	68
add	Edge		93	94
add	Edge		1427	1387
add	Edge		1229	1189
add	Edge		1181	1221
add	Edge		25	24
add	Edge		274	234
add	Edge		789	790
add	Edge		76	77
add	Edge		943	903
add	Edge		32	33
add	Edge		1251	1211
add	Edge		1490	1530
add	Edge		1533	1493
add	Edge		689	690
add	Edge		1213	1173
add	Edge		989	990
add	Edge		74	73
add	Edge		805	765
add	Edge		48	49
add	Edge		1108	1109
add	Edge		1502	1462
add	Edge		1118	1078
add	Edge		1374	1414
add	Edge		1135	1134
add	Edge		1371	1411
add	Edge		1081	1121
add	Edge		45	44
add	Edge		16	17
add	Edge		42	41
add	Edge		88	89
add	Edge		56	57
add	Edge		85	86
add	Edge		13	12
add	Edge		81	82
add	Edge		1444	1404
add	Edge		44	4
add	Edge		0	1
add	Edge		9	8
add	Edge		5	4
add	Edge		71	31
add	Edge		1285	1286
add	Edge		889	890
add	Edge		649	650
add	Edge		1093	1092
add	Edge		87	47
add	Edge		427	426
add	Edge		186	185
add	Edge		195	155
add	Edge		627	587
add	Edge		1398	1397
add	Edge		977	1017
add	Edge		1258	1257
add	Edge		890	930
add	Edge		531	571
add	Edge		254	214
add	Edge		253	213
add	Edge		438	398
add	Edge		532	572
add	Edge		20	21
add	Edge		1562	1563
add	Edge		1171	1211
add	Edge		1178	1218
add	Edge		1379	1378
add	Edge		1453	1493
add	Edge		1466	1467
add	Edge		194	154
add	Edge		255	215
add	Edge		570	530
add	Edge		141	181
add	Edge		604	644
add	Edge		1091	1090
add	Edge		1345	1346
add	Edge		212	252
add	Edge		97	98
add	Edge		65	64
add	Edge		53	54
add	Edge		1530	1570
add	Edge		1486	1485
add	Edge		1538	1539
add	Edge		1543	1544
add	Edge		450	449
add	Edge		1046	1045
add	Edge		1239	1238
add	Edge		1390	1391
add	Edge		113	112
add	Edge		151	150
add	Edge		634	633
add	Edge		684	683
add	Edge		596	597
add	Edge		925	924
add	Edge		442	441
add	Edge		838	837
add	Edge		355	354
add	Edge		827	826
add	Edge		962	963
add	Edge		343	344
add	Edge		694	695
add	Edge		731	732
add	Edge		720	721
add	Edge		491	490
add	Edge		973	974
add	Edge		102	101
add	Edge		382	381
add	Edge		392	393
add	Edge		728	729
add	Edge		623	622
add	Edge		876	875
add	Edge		159	158
add	Edge		551	550
add	Edge		246	245
add	Edge		488	487
add	Edge		864	865
add	Edge		793	792
add	Edge		525	524
add	Edge		295	294
add	Edge		211	210
add	Edge		257	256
add	Edge		777	778
add	Edge		782	781
add	Edge		498	499
add	Edge		535	536
add	Edge		891	890
add	Edge		936	935
add	Edge		148	147
add	Edge		766	767
add	Edge		586	585
add	Edge		284	283
add	Edge		453	452
add	Edge		329	328
add	Edge		197	196
add	Edge		277	276
add	Edge		987	986
add	Edge		916	915
add	Edge		582	542
add	Edge		203	243
add	Edge		521	561
add	Edge		653	654
add	Edge		224	264
add	Edge		746	786
add	Edge		968	928
add	Edge		985	1025
add	Edge		601	641
add	Edge		184	144
add	Edge		854	894
add	Edge		1576	1577
add	Edge		1597	1598
add	Edge		1529	1569
add	Edge		1079	1078
add	Edge		810	770
add	Edge		520	560
add	Edge		202	242
add	Edge		1288	1287
add	Edge		1596	1595
add	Edge		1557	1558
add	Edge		649	609
add	Edge		1264	1224
add	Edge		1478	1479
add	Edge		1471	1472
add	Edge		577	537
add	Edge		967	927
add	Edge		543	583
add	Edge		819	859
add	Edge		130	170
add	Edge		204	244
add	Edge		225	265
add	Edge		954	914
add	Edge		1579	1578
add	Edge		785	745
add	Edge		787	747
add	Edge		143	183
add	Edge		855	895
add	Edge		969	929
add	Edge		642	602
add	Edge		615	655
add	Edge		960	920
add	Edge		541	581
add	Edge		1150	1190
add	Edge		1385	1386
add	Edge		1071	1072
add	Edge		1365	1364
add	Edge		921	961
add	Edge		603	643
add	Edge		788	748
add	Edge		277	237
add	Edge		856	896
add	Edge		142	182
add	Edge		818	858
add	Edge		538	578
add	Edge		966	926
add	Edge		932	892
add	Edge		614	654
add	Edge		131	171
add	Edge		799	759
add	Edge		589	549
add	Edge		955	915
add	Edge		1268	1269
add	Edge		1502	1503
add	Edge		1247	1248
add	Edge		371	411
add	Edge		1189	1190
add	Edge		505	465
add	Edge		1048	1047
add	Edge		1026	1027
add	Edge		1174	1173
add	Edge		226	266
add	Edge		241	201
add	Edge		238	278
add	Edge		153	193
add	Edge		227	267
add	Edge		152	192
add	Edge		857	817
add	Edge		544	584
add	Edge		1240	1200
add	Edge		1368	1369
add	Edge		1295	1294
add	Edge		75	115
add	Edge		1274	1273
add	Edge		503	463
add	Edge		1081	1080
add	Edge		1336	1376
add	Edge		1174	1134
add	Edge		1583	1584
add	Edge		1367	1366
add	Edge		1445	1446
add	Edge		1496	1495
add	Edge		1204	1205
add	Edge		1279	1278
add	Edge		1292	1293
add	Edge		1065	1064
add	Edge		1487	1488
add	Edge		1357	1358
add	Edge		93	133
add	Edge		1417	1457
add	Edge		1517	1518
add	Edge		1565	1564
add	Edge		1490	1491
add	Edge		1444	1443
add	Edge		1085	1086
add	Edge		1066	1067
add	Edge		1350	1351
add	Edge		1138	1139
add	Edge		529	530
add	Edge		1372	1371
add	Edge		1186	1185
add	Edge		1011	1012
add	Edge		1325	1324
add	Edge		1251	1250
add	Edge		619	620
add	Edge		78	118
add	Edge		138	98
add	Edge		438	437
add	Edge		391	390
add	Edge		514	474
add	Edge		718	678
add	Edge		1402	1403
add	Edge		1169	1168
add	Edge		1127	1126
add	Edge		623	583
add	Edge		1148	1147
add	Edge		1384	1383
add	Edge		1094	1095
add	Edge		1058	1057
add	Edge		1367	1327
add	Edge		1492	1493
add	Edge		1188	1187
add	Edge		1575	1574
add	Edge		1593	1592
add	Edge		1457	1458
add	Edge		1048	1008
add	Edge		1566	1567
add	Edge		1053	1052
add	Edge		470	469
add	Edge		621	581
add	Edge		129	130
add	Edge		1183	1143
add	Edge		1339	1338
add	Edge		1211	1212
add	Edge		1150	1151
add	Edge		1344	1343
add	Edge		569	570
add	Edge		1192	1193
add	Edge		1171	1172
add	Edge		1246	1245
add	Edge		1166	1167
add	Edge		1264	1265
add	Edge		1318	1317
add	Edge		1190	1191
add	Edge		396	436
add	Edge		370	410
add	Edge		170	169
add	Edge		1477	1476
add	Edge		1297	1298
add	Edge		1283	1284
add	Edge		209	169
add	Edge		1382	1381
add	Edge		625	585
add	Edge		1152	1153
add	Edge		1076	1075
add	Edge		727	687
add	Edge		1197	1157
add	Edge		70	110
add	Edge		590	591
add	Edge		114	115
add	Edge		352	353
add	Edge		873	874
add	Edge		202	201
add	Edge		686	685
add	Edge		926	927
add	Edge		621	620
add	Edge		862	822
add	Edge		975	976
add	Edge		723	722
add	Edge		92	132
add	Edge		583	584
add	Edge		454	455
add	Edge		729	689
add	Edge		350	349
add	Edge		300	340
add	Edge		445	485
add	Edge		877	837
add	Edge		251	250
add	Edge		824	825
add	Edge		961	960
add	Edge		1402	1442
add	Edge		1376	1377
add	Edge		296	336
add	Edge		821	781
add	Edge		1409	1408
add	Edge		1184	1183
add	Edge		821	861
add	Edge		1392	1393
add	Edge		1388	1387
add	Edge		1560	1520
add	Edge		1070	1030
add	Edge		356	316
add	Edge		484	444
add	Edge		823	863
add	Edge		314	354
add	Edge		836	876
add	Edge		869	870
add	Edge		634	594
add	Edge		1567	1527
add	Edge		446	486
add	Edge		301	341
add	Edge		878	838
add	Edge		1234	1274
add	Edge		592	632
add	Edge		1057	1017
add	Edge		1585	1586
add	Edge		1465	1464
add	Edge		1311	1351
add	Edge		1032	1033
add	Edge		1272	1271
add	Edge		338	337
add	Edge		199	198
add	Edge		194	195
add	Edge		424	425
add	Edge		188	187
add	Edge		666	667
add	Edge		908	907
add	Edge		991	990
add	Edge		183	184
add	Edge		428	429
add	Edge		677	678
add	Edge		285	286
add	Edge		768	769
add	Edge		326	327
add	Edge		629	628
add	Edge		142	141
add	Edge		599	598
add	Edge		553	552
add	Edge		244	243
add	Edge		153	152
add	Edge		969	968
add	Edge		624	625
add	Edge		248	247
add	Edge		383	384
add	Edge		157	156
add	Edge		878	877
add	Edge		862	863
add	Edge		882	881
add	Edge		485	486
add	Edge		726	727
add	Edge		795	794
add	Edge		922	923
add	Edge		635	636
add	Edge		395	394
add	Edge		436	435
add	Edge		791	790
add	Edge		867	866
add	Edge		311	310
add	Edge		399	398
add	Edge		832	831
add	Edge		228	229
add	Edge		281	282
add	Edge		451	450
add	Edge		933	934
add	Edge		534	533
add	Edge		146	145
add	Edge		538	537
add	Edge		893	892
add	Edge		542	541
add	Edge		587	588
add	Edge		497	496
add	Edge		765	764
add	Edge		522	523
add	Edge		775	776
add	Edge		293	292
add	Edge		258	259
add	Edge		346	345
add	Edge		255	254
add	Edge		965	964
add	Edge		568	569
add	Edge		526	527
add	Edge		481	482
add	Edge		650	651
add	Edge		829	828
add	Edge		387	388
add	Edge		297	296
add	Edge		693	692
add	Edge		213	212
add	Edge		783	784
add	Edge		737	738
add	Edge		632	631
add	Edge		357	356
add	Edge		820	821
add	Edge		836	835
add	Edge		363	364
add	Edge		756	755
add	Edge		444	443
add	Edge		111	110
add	Edge		554	514
add	Edge		178	138
add	Edge		885	884
add	Edge		421	422
add	Edge		814	813
add	Edge		175	174
add	Edge		938	937
add	Edge		734	733
add	Edge		379	378
add	Edge		342	341
add	Edge		1556	1555
add	Edge		1055	1015
add	Edge		1177	1176
add	Edge		1482	1481
add	Edge		623	663
add	Edge		230	270
add	Edge		515	555
add	Edge		1108	1148
add	Edge		1553	1593
add	Edge		1331	1330
add	Edge		1531	1491
add	Edge		1032	1031
add	Edge		1537	1536
add	Edge		1097	1096
add	Edge		1351	1352
add	Edge		1034	1074
add	Edge		1006	1005
add	Edge		1405	1404
add	Edge		621	661
add	Edge		177	137
add	Edge		677	717
add	Edge		679	719
add	Edge		287	327
add	Edge		1212	1172
add	Edge		139	179
add	Edge		1360	1320
add	Edge		791	751
add	Edge		1227	1267
add	Edge		1153	1193
add	Edge		1438	1439
add	Edge		1051	1050
add	Edge		1399	1359
add	Edge		1146	1145
add	Edge		1125	1124
add	Edge		1038	1039
add	Edge		868	828
add	Edge		436	476
add	Edge		790	750
add	Edge		517	557
add	Edge		302	342
add	Edge		443	483
add	Edge		347	307
add	Edge		835	875
add	Edge		541	501
add	Edge		1344	1384
add	Edge		1160	1120
add	Edge		1394	1395
add	Edge		1381	1421
add	Edge		1513	1553
add	Edge		1581	1582
add	Edge		1241	1242
add	Edge		1084	1083
add	Edge		1195	1194
add	Edge		1069	1068
add	Edge		289	329
add	Edge		1158	1157
add	Edge		715	675
add	Edge		1524	1523
add	Edge		1178	1179
add	Edge		1560	1561
add	Edge		1462	1463
add	Edge		1336	1337
add	Edge		1262	1263
add	Edge		885	845
add	Edge		886	846
add	Edge		516	556
add	Edge		820	860
add	Edge		209	249
add	Edge		493	453
add	Edge		869	829
add	Edge		318	278
add	Edge		1151	1191
add	Edge		1512	1552
add	Edge		1400	1440
add	Edge		1409	1449
add	Edge		1040	1000
add	Edge		1569	1570
add	Edge		411	412
add	Edge		846	847
add	Edge		556	555
add	Edge		998	997
add	Edge		982	983
add	Edge		507	506
add	Edge		671	670
add	Edge		744	745
add	Edge		272	273
add	Edge		609	608
add	Edge		109	108
add	Edge		368	367
add	Edge		433	432
add	Edge		803	802
add	Edge		912	911
add	Edge		303	302
add	Edge		942	902
add	Edge		797	757
add	Edge		917	957
add	Edge		883	843
add	Edge		451	491
add	Edge		741	781
add	Edge		773	772
add	Edge		905	904
add	Edge		657	658
add	Edge		170	171
add	Edge		137	136
add	Edge		405	404
add	Edge		191	192
add	Edge		331	330
add	Edge		266	265
add	Edge		220	260
add	Edge		652	612
add	Edge		207	167
add	Edge		309	349
add	Edge		275	235
add	Edge		642	643
add	Edge		895	896
add	Edge		1208	1248
add	Edge		1281	1321
add	Edge		728	688
add	Edge		188	148
add	Edge		1427	1467
add	Edge		1393	1353
add	Edge		1430	1470
add	Edge		1405	1365
add	Edge		438	478
add	Edge		187	147
add	Edge		796	756
add	Edge		261	221
add	Edge		653	613
add	Edge		758	798
add	Edge		579	539
add	Edge		276	236
add	Edge		884	844
add	Edge		1069	1109
add	Edge		492	452
add	Edge		1041	1001
add	Edge		276	316
add	Edge		941	901
add	Edge		956	916
add	Edge		348	308
add	Edge		490	450
add	Edge		172	132
add	Edge		1337	1377
add	Edge		1559	1599
add	Edge		1546	1586
add	Edge		1127	1167
add	Edge		1064	1024
add	Edge		1504	1544
add	Edge		1343	1383
add	Edge		1388	1428
add	Edge		1486	1446
add	Edge		1409	1410
add	Edge		431	430
add	Edge		263	264
add	Edge		743	742
add	Edge		516	515
add	Edge		316	315
add	Edge		952	951
add	Edge		366	365
add	Edge		606	607
add	Edge		274	275
add	Edge		996	995
add	Edge		107	106
add	Edge		128	127
add	Edge		914	913
add	Edge		985	984
add	Edge		279	278
add	Edge		758	757
add	Edge		673	672
add	Edge		348	349
add	Edge		504	505
add	Edge		849	848
add	Edge		988	989
add	Edge		124	123
add	Edge		801	800
add	Edge		479	478
add	Edge		746	747
add	Edge		897	898
add	Edge		508	509
add	Edge		467	468
add	Edge		418	417
add	Edge		161	162
add	Edge		662	661
add	Edge		377	376
add	Edge		645	644
add	Edge		414	413
add	Edge		570	571
add	Edge		402	403
add	Edge		139	138
add	Edge		903	902
add	Edge		655	656
add	Edge		173	172
add	Edge		812	811
add	Edge		1297	1257
add	Edge		1097	1057
add	Edge		361	362
add	Edge		871	870
add	Edge		703	702
add	Edge		318	317
add	Edge		714	713
add	Edge		547	546
add	Edge		513	514
add	Edge		993	994
add	Edge		805	804
add	Edge		544	545
add	Edge		511	512
add	Edge		457	458
add	Edge		564	563
add	Edge		718	717
add	Edge		557	558
add	Edge		958	957
add	Edge		309	308
add	Edge		271	270
add	Edge		235	234
add	Edge		561	562
add	Edge		715	716
add	Edge		306	307
add	Edge		215	216
add	Edge		954	953
add	Edge		472	473
add	Edge		500	501
add	Edge		304	305
add	Edge		940	941
add	Edge		232	233
add	Edge		701	700
add	Edge		237	236
add	Edge		789	788
add	Edge		754	753
add	Edge		476	477
add	Edge		740	741
add	Edge		324	323
add	Edge		548	549
add	Edge		797	798
add	Edge		168	167
add	Edge		121	122
add	Edge		943	942
add	Edge		752	751
add	Edge		806	807
add	Edge		322	321
add	Edge		231	230
add	Edge		565	566
add	Edge		475	474
add	Edge		787	786
add	Edge		471	470
add	Edge		956	955
add	Edge		818	817
add	Edge		706	707
add	Edge		842	843
add	Edge		615	616
add	Edge		165	166
add	Edge		611	612
add	Edge		603	602
add	Edge		649	648
add	Edge		409	408
add	Edge		373	372
add	Edge		133	132
add	Edge		463	464
add	Edge		335	334
add	Edge		947	946
add	Edge		855	856
add	Edge		852	851
add	Edge		206	207
add	Edge		574	575
add	Edge		889	888
add	Edge		223	224
add	Edge		446	447
add	Edge		178	179
add	Edge		218	217
add	Edge		600	601
add	Edge		945	944
add	Edge		130	131
add	Edge		222	221
add	Edge		371	370
add	Edge		462	461
add	Edge		205	204
add	Edge		853	854
add	Edge		841	840
add	Edge		614	613
add	Edge		577	576
add	Edge		704	705
add	Edge		1088	1048
add	Edge		1469	1470
add	Edge		857	858
add	Edge		406	407
add	Edge		815	816
add	Edge		647	646
add	Edge		135	134
add	Edge		375	374
add	Edge		466	465
add	Edge		181	180
add	Edge		918	919
add	Edge		531	530
add	Edge		886	887
add	Edge		226	225
add	Edge		688	689
add	Edge		949	948
add	Edge		605	604
add	Edge		448	449
add	Edge		177	176
add	Edge		845	844
add	Edge		770	771
add	Edge		164	163
add	Edge		664	663
add	Edge		208	209
add	Edge		333	332
add	Edge		617	618
add	Edge		268	267
add	Edge		118	117
add	Edge		709	708
add	Edge		573	572
add	Edge		749	748
add	Edge		517	518
add	Edge		675	674
add	Edge		503	502
add	Edge		125	126
add	Edge		682	681
add	Edge		762	761
add	Edge		313	314
add	Edge		104	103
add	Edge		493	492
add	Edge		401	400
add	Edge		697	696
add	Edge		415	416
add	Edge		1374	1334
add	Edge		1521	1481
add	Edge		1073	1074
add	Edge		1241	1201
add	Edge		1576	1536
add	Edge		1304	1305
add	Edge		1235	1195
add	Edge		1436	1437
add	Edge		1266	1267
add	Edge		1102	1062
add	Edge		1162	1202
add	Edge		969	1009
add	Edge		1253	1293
add	Edge		1451	1411
add	Edge		1543	1583
add	Edge		1417	1418
add	Edge		1590	1591
add	Edge		1257	1217
add	Edge		1112	1111
add	Edge		1225	1224
add	Edge		179	180
add	Edge		1243	1244
add	Edge		102	62
add	Edge		1329	1330
add	Edge		749	750
add	Edge		461	501
add	Edge		472	512
add	Edge		1041	1081
add	Edge		1502	1542
add	Edge		1063	1023
add	Edge		1498	1497
add	Edge		1537	1577
add	Edge		1087	1047
add	Edge		1455	1456
add	Edge		1389	1390
add	Edge		676	716
add	Edge		701	661
add	Edge		1587	1588
add	Edge		1276	1277
add	Edge		516	476
add	Edge		1182	1142
add	Edge		1216	1256
add	Edge		1370	1369
add	Edge		578	577
add	Edge		664	665
add	Edge		325	324
add	Edge		751	750
add	Edge		611	571
add	Edge		1094	1093
add	Edge		851	891
add	Edge		1435	1395
add	Edge		1213	1214
add	Edge		573	533
add	Edge		228	268
add	Edge		441	401
add	Edge		1337	1338
add	Edge		1598	1599
add	Edge		586	546
add	Edge		573	613
add	Edge		268	308
add	Edge		1509	1469
add	Edge		1065	1105
add	Edge		1296	1336
add	Edge		1483	1523
add	Edge		734	694
add	Edge		736	696
add	Edge		721	761
add	Edge		548	588
add	Edge		403	443
add	Edge		25	26
add	Edge		47	48
add	Edge		1164	1204
add	Edge		1048	1049
add	Edge		1117	1118
add	Edge		1407	1406
add	Edge		1474	1475
add	Edge		797	796
add	Edge		918	917
add	Edge		446	445
add	Edge		117	116
add	Edge		872	871
add	Edge		860	861
add	Edge		204	203
add	Edge		929	928
add	Edge		688	687
add	Edge		215	214
add	Edge		698	699
add	Edge		785	786
add	Edge		457	456
add	Edge		1316	1276
add	Edge		1	41
add	Edge		653	652
add	Edge		774	773
add	Edge		226	227
add	Edge		554	555
add	Edge		423	422
add	Edge		358	359
add	Edge		469	468
add	Edge		192	193
add	Edge		642	641
add	Edge		895	894
add	Edge		531	532
add	Edge		905	906
add	Edge		313	312
add	Edge		883	884
add	Edge		128	129
add	Edge		433	434
add	Edge		348	347
add	Edge		290	291
add	Edge		917	916
add	Edge		302	301
add	Edge		520	521
add	Edge		762	763
add	Edge		116	76
add	Edge		982	981
add	Edge		238	237
add	Edge		105	106
add	Edge		411	410
add	Edge		676	675
add	Edge		543	544
add	Edge		782	783
add	Edge		182	181
add	Edge		558	598
add	Edge		993	992
add	Edge		190	150
add	Edge		807	808
add	Edge		1086	1087
add	Edge		427	387
add	Edge		407	367
add	Edge		730	690
add	Edge		279	239
add	Edge		972	1012
add	Edge		730	770
add	Edge		412	452
add	Edge		1529	1489
add	Edge		853	893
add	Edge		257	217
add	Edge		219	259
add	Edge		596	556
add	Edge		535	575
add	Edge		389	349
add	Edge		149	109
add	Edge		640	600
add	Edge		1156	1155
add	Edge		427	467
add	Edge		1463	1464
add	Edge		840	880
add	Edge		522	562
add	Edge		454	414
add	Edge		772	732
add	Edge		429	389
add	Edge		1305	1265
add	Edge		615	575
add	Edge		1368	1367
add	Edge		1348	1349
add	Edge		744	784
add	Edge		45	5
add	Edge		1221	1220
add	Edge		1589	1590
add	Edge		425	385
add	Edge		1413	1414
add	Edge		732	692
add	Edge		147	107
add	Edge		425	465
add	Edge		7	47
add	Edge		1163	1162
add	Edge		1236	1237
add	Edge		1355	1356
add	Edge		1287	1286
add	Edge		1281	1282
add	Edge		714	674
add	Edge		1152	1151
add	Edge		1225	1226
add	Edge		1451	1452
add	Edge		878	918
add	Edge		363	403
add	Edge		1007	1006
add	Edge		1382	1383
add	Edge		1199	1198
add	Edge		1525	1526
add	Edge		1456	1457
add	Edge		1576	1575
add	Edge		1493	1494
add	Edge		974	1014
add	Edge		595	594
add	Edge		971	972
add	Edge		566	567
add	Edge		638	598
add	Edge		1036	1037
add	Edge		190	230
add	Edge		304	264
add	Edge		867	907
add	Edge		1326	1325
add	Edge		1302	1301
add	Edge		177	217
add	Edge		880	920
add	Edge		219	179
add	Edge		1290	1330
add	Edge		1206	1207
add	Edge		1133	1132
add	Edge		1175	1174
add	Edge		1532	1533
add	Edge		1270	1271
add	Edge		1344	1345
add	Edge		1470	1471
add	Edge		1020	1021
add	Edge		306	266
add	Edge		1544	1545
add	Edge		795	835
add	Edge		1418	1419
add	Edge		636	596
add	Edge		97	137
add	Edge		9	10
add	Edge		930	929
add	Edge		1500	1460
add	Edge		1102	1101
add	Edge		634	674
add	Edge		1549	1548
add	Edge		632	672
add	Edge		1168	1167
add	Edge		1339	1299
add	Edge		51	50
add	Edge		72	73
add	Edge		94	95
add	Edge		17	18
add	Edge		1333	1332
add	Edge		100	60
add	Edge		900	899
add	Edge		1008	968
add	Edge		1487	1486
add	Edge		304	344
add	Edge		306	346
add	Edge		488	448
add	Edge		1014	1013
add	Edge		327	367
add	Edge		513	553
add	Edge		753	793
add	Edge		405	365
add	Edge		1088	1128
add	Edge		1231	1191
add	Edge		1480	1520
add	Edge		710	670
add	Edge		1294	1293
add	Edge		1538	1537
add	Edge		118	158
add	Edge		369	329
add	Edge		493	533
add	Edge		795	755
add	Edge		108	68
add	Edge		86	126
add	Edge		1229	1230
add	Edge		228	188
add	Edge		1278	1318
add	Edge		651	611
add	Edge		918	958
add	Edge		208	248
add	Edge		654	694
add	Edge		1424	1384
add	Edge		1076	1116
add	Edge		1060	1100
add	Edge		842	882
add	Edge		246	206
add	Edge		35	36
add	Edge		65	66
add	Edge		57	58
add	Edge		13	14
add	Edge		91	90
add	Edge		61	60
add	Edge		21	22
add	Edge		43	44
add	Edge		82	83
add	Edge		511	551
add	Edge		656	696
add	Edge		87	88
add	Edge		1182	1222
add	Edge		1372	1412
add	Edge		105	65
add	Edge		669	668
add	Edge		3	43
add	Edge		372	412
add	Edge		1499	1500
add	Edge		1099	1100
add	Edge		1309	1269
add	Edge		1063	1103
add	Edge		1217	1177
add	Edge		31	30
add	Edge		78	77
add	Edge		85	84
add	Edge		56	55
add	Edge		80	81
add	Edge		92	93
add	Edge		67	68
add	Edge		63	62
add	Edge		74	75
add	Edge		40	41
add	Edge		16	15
add	Edge		53	52
add	Edge		27	28
add	Edge		34	33
add	Edge		38	37
add	Edge		11	12
add	Edge		96	97
add	Edge		23	24
add	Edge		45	46
add	Edge		71	70
add	Edge		1161	1201
add	Edge		1404	1364
add	Edge		1085	1125
add	Edge		1496	1536
add	Edge		1399	1398
add	Edge		1029	1030
add	Edge		1420	1421
add	Edge		775	815
add	Edge		1431	1471
add	Edge		898	938
add	Edge		1417	1377
add	Edge		721	681
add	Edge		564	604
add	Edge		1516	1476
add	Edge		1090	1130
add	Edge		1310	1270
add	Edge		500	499
add	Edge		1053	1013
add	Edge		1525	1565
add	Edge		934	894
add	Edge		1305	1345
add	Edge		600	560
add	Edge		819	779
add	Edge		163	203
add	Edge		1206	1166
add	Edge		1283	1323
add	Edge		535	495
add	Edge		433	393
add	Edge		602	562
add	Edge		1415	1375
add	Edge		1510	1470
add	Edge		1184	1224
add	Edge		469	509
add	Edge		1397	1437
add	Edge		629	589
add	Edge		777	817
add	Edge		936	896
add	Edge		1112	1152
add	Edge		1548	1588
add	Edge		1372	1332
add	Edge		1206	1246
add	Edge		707	667
add	Edge		429	430
add	Edge		1145	1105
add	Edge		939	899
add	Edge		1300	1299
add	Edge		322	282
add	Edge		774	814
add	Edge		526	486
add	Edge		378	418
add	Edge		980	1020
add	Edge		982	1022
add	Edge		508	468
add	Edge		394	434
add	Edge		685	725
add	Edge		270	310
add	Edge		202	162
add	Edge		164	204
add	Edge		723	683
add	Edge		895	935
add	Edge		1506	1466
add	Edge		1525	1485
add	Edge		1499	1539
add	Edge		1370	1410
add	Edge		791	831
add	Edge		160	200
add	Edge		392	432
add	Edge		773	813
add	Edge		1355	1395
add	Edge		818	778
add	Edge		374	414
add	Edge		1010	1009
add	Edge		1001	961
add	Edge		479	519
add	Edge		1313	1273
add	Edge		1505	1545
add	Edge		87	127
add	Edge		390	430
add	Edge		281	321
add	Edge		1264	1263
add	Edge		1320	1280
add	Edge		1486	1526
add	Edge		950	990
add	Edge		459	499
add	Edge		1044	1043
add	Edge		1424	1464
add	Edge		668	708
add	Edge		338	298
add	Edge		1207	1167
add	Edge		1233	1193
add	Edge		706	666
add	Edge		1307	1267
add	Edge		1004	964
add	Edge		1070	1110
add	Edge		960	1000
add	Edge		1451	1491
add	Edge		1325	1365
add	Edge		1231	1271
add	Edge		271	311
add	Edge		907	947
add	Edge		1550	1590
add	Edge		1080	1120
add	Edge		1092	1132
add	Edge		685	645
add	Edge		1187	1227
add	Edge		590	630
add	Edge		664	704
add	Edge		522	482
add	Edge		117	77
add	Edge		1513	1473
add	Edge		1114	1074
add	Edge		285	325
add	Edge		643	683
add	Edge		497	537
add	Edge		1433	1393
add	Edge		1582	1583
add	Edge		949	909
add	Edge		824	784
add	Edge		963	1003
add	Edge		313	273
add	Edge		1030	990
add	Edge		1076	1036
add	Edge		391	431
add	Edge		369	409
add	Edge		161	201
add	Edge		283	323
add	Edge		1406	1446
add	Edge		1454	1494
add	Edge		1094	1054
add	Edge		1532	1572
add	Edge		1168	1128
add	Edge		1046	1006
add	Edge		1009	1049
add	Edge		1172	1132
add	Edge		1175	1135
add	Edge		816	776
add	Edge		361	401
add	Edge		1175	1215
add	Edge		539	499
add	Edge		280	320
add	Edge		672	712
add	Edge		484	524
add	Edge		1534	1494
add	Edge		882	922
add	Edge		1361	1401
add	Edge		1083	1123
add	Edge		1511	1471
add	Edge		416	376
add	Edge		564	524
add	Edge		801	761
add	Edge		338	378
add	Edge		1325	1285
add	Edge		9	49
add	Edge		1253	1213
add	Edge		1006	966
add	Edge		857	856
add	Edge		335	336
add	Edge		199	239
add	Edge		793	833
add	Edge		1099	1139
add	Edge		272	312
add	Edge		1368	1408
add	Edge		1478	1518
add	Edge		1300	1260
add	Edge		1099	1059
add	Edge		1333	1293
add	Edge		962	1002
add	Edge		96	136
add	Edge		284	324
add	Edge		705	665
add	Edge		1487	1447
add	Edge		1229	1269
add	Edge		897	937
add	Edge		488	528
add	Edge		869	909
add	Edge		1518	1558
add	Edge		1294	1254
add	Edge		1348	1388
add	Edge		1312	1352
add	Edge		1368	1328
add	Edge		1029	1069
add	Edge		1155	1195
add	Edge		121	120
add	Edge		460	461
add	Edge		614	615
add	Edge		383	343
add	Edge		374	373
add	Edge		954	955
add	Edge		701	702
add	Edge		883	923
add	Edge		1170	1210
add	Edge		1265	1266
add	Edge		1020	1060
add	Edge		1459	1458
add	Edge		213	173
add	Edge		114	74
add	Edge		1324	1364
add	Edge		1236	1276
add	Edge		999	1039
add	Edge		1246	1247
add	Edge		1211	1210
add	Edge		384	344
add	Edge		194	234
add	Edge		196	236
add	Edge		14	15
add	Edge		1482	1522
add	Edge		1303	1263
add	Edge		59	58
add	Edge		382	342
add	Edge		1178	1177
add	Edge		1517	1557
add	Edge		1477	1478
add	Edge		1188	1189
add	Edge		1404	1403
add	Edge		166	167
add	Edge		178	177
add	Edge		408	407
add	Edge		85	45
add	Edge		264	265
add	Edge		811	810
add	Edge		845	846
add	Edge		419	418
add	Edge		1042	1082
add	Edge		1291	1251
add	Edge		516	517
add	Edge		748	747
add	Edge		758	759
add	Edge		505	506
add	Edge		276	275
add	Edge		713	712
add	Edge		363	362
add	Edge		13	53
add	Edge		603	604
add	Edge		147	146
add	Edge		524	523
add	Edge		934	974
add	Edge		372	332
add	Edge		472	471
add	Edge		888	928
add	Edge		394	354
add	Edge		786	826
add	Edge		1279	1319
add	Edge		1392	1391
add	Edge		1465	1466
add	Edge		739	779
add	Edge		520	480
add	Edge		844	804
add	Edge		1338	1298
add	Edge		803	843
add	Edge		988	948
add	Edge		1272	1273
add	Edge		1158	1159
add	Edge		975	935
add	Edge		1373	1372
add	Edge		353	393
add	Edge		371	331
add	Edge		617	577
add	Edge		1077	1037
add	Edge		1363	1403
add	Edge		1067	1107
add	Edge		933	973
add	Edge		395	355
add	Edge		1356	1396
add	Edge		1449	1489
add	Edge		1496	1497
add	Edge		1346	1347
add	Edge		61	21
add	Edge		727	767
add	Edge		381	341
add	Edge		737	777
add	Edge		409	449
add	Edge		352	392
add	Edge		629	669
add	Edge		842	802
add	Edge		987	947
add	Edge		211	171
add	Edge		330	370
add	Edge		238	198
add	Edge		579	619
add	Edge		233	193
add	Edge		1484	1485
add	Edge		1558	1559
add	Edge		936	976
add	Edge		738	778
add	Edge		766	726
add	Edge		1452	1412
add	Edge		2	42
add	Edge		1148	1188
add	Edge		214	174
add	Edge		1591	1592
add	Edge		884	924
add	Edge		1058	1059
add	Edge		1146	1147
add	Edge		1284	1285
add	Edge		1072	1073
add	Edge		1111	1110
add	Edge		659	660
add	Edge		128	88
add	Edge		1028	1027
add	Edge		1549	1589
add	Edge		1054	1053
add	Edge		1078	1077
add	Edge		1304	1303
add	Edge		1578	1577
add	Edge		79	119
add	Edge		6	46
add	Edge		57	97
add	Edge		943	944
add	Edge		1429	1430
add	Edge		779	780
add	Edge		326	286
add	Edge		521	481
add	Edge		1585	1584
add	Edge		1185	1184
add	Edge		1426	1386
add	Edge		1258	1259
add	Edge		1089	1088
add	Edge		1396	1397
add	Edge		420	419
add	Edge		887	927
add	Edge		210	170
add	Edge		787	827
add	Edge		785	825
add	Edge		889	929
add	Edge		33	73
add	Edge		1296	1256
add	Edge		1377	1378
add	Edge		197	237
add	Edge		591	631
add	Edge		262	302
add	Edge		1165	1166
add	Edge		1091	1092
add	Edge		1292	1291
add	Edge		215	175
add	Edge		232	192
add	Edge		618	578
add	Edge		1566	1565
add	Edge		789	829
add	Edge		1071	1070
add	Edge		1359	1358
add	Edge		885	925
add	Edge		900	860
add	Edge		1500	1540
add	Edge		649	689
add	Edge		257	297
add	Edge		112	152
add	Edge		1094	1134
add	Edge		1479	1519
add	Edge		1339	1340
add	Edge		1032	992
add	Edge		688	648
add	Edge		151	111
add	Edge		296	256
add	Edge		984	1024
add	Edge		1173	1172
add	Edge		706	746
add	Edge		992	952
add	Edge		153	113
add	Edge		1208	1168
add	Edge		1093	1133
add	Edge		84	83
add	Edge		1461	1462
add	Edge		1341	1340
add	Edge		1095	1096
add	Edge		1288	1289
add	Edge		1596	1597
add	Edge		997	1037
add	Edge		93	53
add	Edge		743	703
add	Edge		758	718
add	Edge		1113	1073
add	Edge		1326	1286
add	Edge		1046	1047
add	Edge		1311	1271
add	Edge		1085	1084
add	Edge		744	704
add	Edge		995	955
add	Edge		759	719
add	Edge		395	435
add	Edge		679	639
add	Edge		1278	1277
add	Edge		1142	1143
add	Edge		143	103
add	Edge		642	682
add	Edge		254	294
add	Edge		788	828
add	Edge		620	580
add	Edge		705	745
add	Edge		886	926
add	Edge		954	994
add	Edge		993	953
add	Edge		255	295
add	Edge		647	687
add	Edge		150	110
add	Edge		1016	976
add	Edge		91	131
add	Edge		729	769
add	Edge		105	145
add	Edge		195	235
add	Edge		1026	986
add	Edge		945	985
add	Edge		66	106
add	Edge		640	680
add	Edge		753	713
add	Edge		146	106
add	Edge		361	321
add	Edge		1306	1266
add	Edge		360	320
add	Edge		841	801
add	Edge		946	986
add	Edge		144	104
add	Edge		752	712
add	Edge		336	376
add	Edge		641	681
add	Edge		728	768
add	Edge		1086	1126
add	Edge		628	588
add	Edge		54	55
add	Edge		212	172
add	Edge		1186	1226
add	Edge		1329	1289
add	Edge		1098	1138
add	Edge		1487	1527
add	Edge		1504	1464
add	Edge		11	10
add	Edge		99	98
add	Edge		18	19
add	Edge		72	71
add	Edge		46	47
add	Edge		1196	1156
add	Edge		910	909
add	Edge		1379	1419
add	Edge		139	99
add	Edge		131	132
add	Edge		1579	1580
add	Edge		1140	1139
add	Edge		34	35
add	Edge		1507	1508
add	Edge		1392	1432
add	Edge		1503	1463
add	Edge		1294	1334
add	Edge		1096	1136
add	Edge		1238	1198
add	Edge		63	64
add	Edge		78	79
add	Edge		38	39
add	Edge		340	339
add	Edge		933	893
add	Edge		66	67
add	Edge		96	95
add	Edge		23	22
add	Edge		1045	1005
add	Edge		51	52
add	Edge		92	91
add	Edge		1349	1389
add	Edge		26	27
add	Edge		6	7
add	Edge		2	3
add	Edge		1309	1310
add	Edge		1022	1021
add	Edge		25	65
add	Edge		1110	1109
add	Edge		1060	1059
add	Edge		539	540
add	Edge		1555	1595
add	Edge		1429	1469
add	Edge		1491	1492
add	Edge		1365	1366
add	Edge		852	853
add	Edge		223	222
add	Edge		948	947
add	Edge		457	417
add	Edge		979	939
add	Edge		513	512
add	Edge		476	475
add	Edge		562	563
add	Edge		1090	1089
add	Edge		1449	1450
add	Edge		775	735
add	Edge		220	219
add	Edge		717	716
add	Edge		1326	1327
add	Edge		1244	1284
add	Edge		1203	1202
add	Edge		1163	1123
add	Edge		1134	1133
add	Edge		492	532
add	Edge		606	566
add	Edge		358	398
add	Edge		399	359
add	Edge		1342	1343
add	Edge		1255	1254
add	Edge		1307	1308
add	Edge		397	357
add	Edge		736	776
add	Edge		978	938
add	Edge		1554	1555
add	Edge		1038	1037
add	Edge		458	418
add	Edge		181	221
add	Edge		490	530
add	Edge		774	734
add	Edge		848	808
add	Edge		86	87
add	Edge		32	31
add	Edge		42	43
add	Edge		75	76
add	Edge		456	416
add	Edge		1415	1414
add	Edge		1535	1536
add	Edge		1057	1056
add	Edge		1115	1114
add	Edge		190	189
add	Edge		1222	1221
add	Edge		1083	1082
add	Edge		739	740
add	Edge		218	219
add	Edge		208	207
add	Edge		887	888
add	Edge		268	269
add	Edge		559	558
add	Edge		306	305
add	Edge		547	548
add	Edge		404	403
add	Edge		657	656
add	Edge		618	619
add	Edge		163	162
add	Edge		901	902
add	Edge		660	661
add	Edge		814	815
add	Edge		415	414
add	Edge		135	136
add	Edge		646	645
add	Edge		898	899
add	Edge		378	377
add	Edge		331	332
add	Edge		174	173
add	Edge		1316	1356
add	Edge		743	744
add	Edge		607	608
add	Edge		950	951
add	Edge		261	260
add	Edge		125	124
add	Edge		913	912
add	Edge		997	996
add	Edge		985	986
add	Edge		366	367
add	Edge		672	671
add	Edge		754	755
add	Edge		272	271
add	Edge		501	502
add	Edge		803	804
add	Edge		321	320
add	Edge		317	316
add	Edge		706	705
add	Edge		538	539
add	Edge		573	574
add	Edge		805	845
add	Edge		348	388
add	Edge		690	650
add	Edge		764	724
add	Edge		406	446
add	Edge		728	727
add	Edge		428	468
add	Edge		1477	1437
add	Edge		1506	1505
add	Edge		1510	1550
add	Edge		582	622
add	Edge		872	912
add	Edge		1007	1008
add	Edge		1024	1023
add	Edge		1249	1250
add	Edge		1028	1029
add	Edge		1312	1313
add	Edge		765	725
add	Edge		387	347
add	Edge		651	691
add	Edge		407	447
add	Edge		373	333
add	Edge		949	989
add	Edge		1408	1407
add	Edge		1147	1107
add	Edge		1429	1428
add	Edge		1500	1501
add	Edge		1524	1525
add	Edge		1546	1545
add	Edge		710	750
add	Edge		1216	1217
add	Edge		1522	1521
add	Edge		723	763
add	Edge		1333	1334
add	Edge		405	445
add	Edge		1281	1280
add	Edge		380	340
add	Edge		1476	1436
add	Edge		846	806
add	Edge		225	185
add	Edge		1422	1382
add	Edge		469	429
add	Edge		183	223
add	Edge		1243	1283
add	Edge		1357	1317
add	Edge		1540	1541
add	Edge		1315	1314
add	Edge		1235	1236
add	Edge		1141	1140
add	Edge		1122	1121
add	Edge		1215	1214
add	Edge		1241	1240
add	Edge		1101	1100
add	Edge		653	693
add	Edge		773	733
add	Edge		459	419
add	Edge		375	335
add	Edge		450	410
add	Edge		595	555
add	Edge		751	711
add	Edge		807	847
add	Edge		345	385
add	Edge		396	356
add	Edge		932	972
add	Edge		762	722
add	Edge		1427	1426
add	Edge		1448	1447
add	Edge		1573	1574
add	Edge		1353	1352
add	Edge		1149	1150
add	Edge		1102	1103
add	Edge		397	437
add	Edge		1332	1331
add	Edge		1005	1004
add	Edge		346	386
add	Edge		451	411
add	Edge		652	692
add	Edge		374	334
add	Edge		408	448
add	Edge		977	937
add	Edge		351	391
add	Edge		440	400
add	Edge		227	187
add	Edge		607	567
add	Edge		1509	1549
add	Edge		1443	1403
add	Edge		1210	1250
add	Edge		1348	1347
add	Edge		1224	1223
add	Edge		1552	1592
add	Edge		491	531
add	Edge		1031	1030
add	Edge		1232	1231
add	Edge		1305	1306
add	Edge		1155	1154
add	Edge		1420	1460
add	Edge		1275	1276
add	Edge		1316	1317
add	Edge		1233	1273
add	Edge		1243	1242
add	Edge		1513	1512
add	Edge		1228	1229
add	Edge		1581	1580
add	Edge		1534	1533
add	Edge		1141	1101
add	Edge		1424	1425
add	Edge		1105	1104
add	Edge		891	931
add	Edge		626	586
add	Edge		903	863
add	Edge		1589	1588
add	Edge		1435	1436
add	Edge		1361	1362
add	Edge		1514	1515
add	Edge		1441	1440
add	Edge		1135	1136
add	Edge		1061	1062
add	Edge		1016	1017
add	Edge		1015	1014
add	Edge		1300	1301
add	Edge		980	979
add	Edge		100	99
add	Edge		610	611
add	Edge		205	206
add	Edge		958	959
add	Edge		1035	995
add	Edge		799	798
add	Edge		811	771
add	Edge		233	234
add	Edge		1473	1474
add	Edge		1453	1452
add	Edge		1426	1466
add	Edge		1547	1548
add	Edge		873	913
add	Edge		279	319
add	Edge		1422	1421
add	Edge		1164	1124
add	Edge		1433	1434
add	Edge		1455	1454
add	Edge		1550	1551
add	Edge		1443	1442
add	Edge		1381	1380
add	Edge		1117	1116
add	Edge		1476	1475
add	Edge		1413	1412
add	Edge		1400	1401
add	Edge		1129	1128
add	Edge		998	1038
add	Edge		1459	1499
add	Edge		1336	1335
add	Edge		1283	1282
add	Edge		1001	1000
add	Edge		1262	1261
add	Edge		1042	1043
add	Edge		1528	1529
add	Edge		859	860
add	Edge		1018	978
add	Edge		1260	1259
add	Edge		466	506
add	Edge		875	915
add	Edge		182	222
add	Edge		459	460
add	Edge		1450	1410
add	Edge		1219	1218
add	Edge		1531	1532
add	Edge		1302	1303
add	Edge		1213	1212
add	Edge		820	780
add	Edge		871	911
add	Edge		1349	1350
add	Edge		1098	1097
add	Edge		1226	1227
add	Edge		226	186
add	Edge		1108	1107
add	Edge		568	608
add	Edge		277	317
add	Edge		1310	1311
add	Edge		1033	1034
add	Edge		1379	1380
add	Edge		216	217
add	Edge		448	447
add	Edge		164	165
add	Edge		318	319
add	Edge		862	902
add	Edge		707	747
add	Edge		355	315
add	Edge		877	917
add	Edge		275	315
add	Edge		300	260
add	Edge		787	788
add	Edge		1226	1266
add	Edge		1192	1191
add	Edge		504	464
add	Edge		1112	1113
add	Edge		1329	1328
add	Edge		1149	1189
add	Edge		1290	1250
add	Edge		1480	1481
add	Edge		1538	1498
add	Edge		1556	1596
add	Edge		748	708
add	Edge		1384	1385
add	Edge		1416	1417
add	Edge		1207	1208
add	Edge		298	258
add	Edge		1321	1322
add	Edge		796	836
add	Edge		208	168
add	Edge		838	798
add	Edge		511	471
add	Edge		579	580
add	Edge		206	166
add	Edge		1098	1099
add	Edge		1054	1014
add	Edge		1156	1157
add	Edge		1593	1594
add	Edge		1509	1510
add	Edge		1483	1443
add	Edge		1201	1200
add	Edge		1041	1040
add	Edge		1036	1035
add	Edge		85	125
add	Edge		134	94
add	Edge		601	602
add	Edge		360	361
add	Edge		945	946
add	Edge		703	704
add	Edge		612	613
add	Edge		224	225
add	Edge		850	851
add	Edge		220	221
add	Edge		843	844
add	Edge		575	576
add	Edge		371	372
add	Edge		816	817
add	Edge		707	708
add	Edge		855	854
add	Edge		462	463
add	Edge		134	133
add	Edge		334	333
add	Edge		617	616
add	Edge		941	942
add	Edge		322	323
add	Edge		753	752
add	Edge		718	719
add	Edge		805	806
add	Edge		231	232
add	Edge		236	235
add	Edge		714	715
add	Edge		511	510
add	Edge		565	564
add	Edge		957	956
add	Edge		473	474
add	Edge		190	191
add	Edge		507	508
add	Edge		606	605
add	Edge		1150	1110
add	Edge		1242	1282
add	Edge		315	314
add	Edge		812	813
add	Edge		406	405
add	Edge		658	659
add	Edge		138	137
add	Edge		416	417
add	Edge		885	886
add	Edge		897	896
add	Edge		466	467
add	Edge		266	267
add	Edge		644	643
add	Edge		421	420
add	Edge		375	376
add	Edge		175	176
add	Edge		402	401
add	Edge		771	772
add	Edge		903	904
add	Edge		171	172
add	Edge		161	160
add	Edge		654	655
add	Edge		413	412
add	Edge		662	663
add	Edge		571	572
add	Edge		118	119
add	Edge		858	859
add	Edge		503	504
add	Edge		710	711
add	Edge		801	802
add	Edge		761	760
add	Edge		847	848
add	Edge		277	278
add	Edge		983	984
add	Edge		757	756
add	Edge		369	368
add	Edge		673	674
add	Edge		988	987
add	Edge		274	273
add	Edge		365	364
add	Edge		1156	1116
add	Edge		108	107
add	Edge		746	745
add	Edge		998	999
add	Edge		263	262
add	Edge		914	915
add	Edge		432	431
add	Edge		126	127
add	Edge		518	519
add	Edge		910	911
add	Edge		477	478
add	Edge		561	560
add	Edge		303	304
add	Edge		515	514
add	Edge		122	123
add	Edge		953	952
add	Edge		995	994
add	Edge		742	741
add	Edge		556	557
add	Edge		458	459
add	Edge		647	648
add	Edge		141	101
add	Edge		659	699
add	Edge		156	116
add	Edge		638	678
add	Edge		956	996
add	Edge		249	248
add	Edge		545	546
add	Edge		866	906
add	Edge		292	252
add	Edge		626	625
add	Edge		551	552
add	Edge		168	169
add	Edge		1118	1119
add	Edge		1424	1423
add	Edge		1066	1065
add	Edge		1045	1044
add	Edge		1431	1432
add	Edge		1187	1147
add	Edge		662	702
add	Edge		1518	1519
add	Edge		1411	1410
add	Edge		1106	1105
add	Edge		515	475
add	Edge		941	981
add	Edge		662	622
add	Edge		1354	1355
add	Edge		1081	1082
add	Edge		1033	1073
add	Edge		1238	1237
add	Edge		1164	1163
add	Edge		1433	1473
add	Edge		1138	1137
add	Edge		670	630
add	Edge		982	942
add	Edge		677	637
add	Edge		157	117
add	Edge		742	702
add	Edge		1542	1543
add	Edge		1026	1025
add	Edge		500	540
add	Edge		1503	1504
add	Edge		293	253
add	Edge		100	140
add	Edge		609	569
add	Edge		658	698
add	Edge		435	475
add	Edge		460	500
add	Edge		1135	1095
add	Edge		513	473
add	Edge		460	420
add	Edge		251	291
add	Edge		325	365
add	Edge		757	717
add	Edge		997	957
add	Edge		155	115
add	Edge		1341	1301
add	Edge		142	102
add	Edge		1080	1040
add	Edge		1257	1256
add	Edge		1114	1154
add	Edge		1562	1561
add	Edge		1388	1389
add	Edge		1182	1183
add	Edge		1296	1295
add	Edge		1064	1063
add	Edge		1196	1195
add	Edge		1161	1162
add	Edge		1274	1275
add	Edge		971	1011
add	Edge		636	676
add	Edge		290	250
add	Edge		943	983
add	Edge		324	364
add	Edge		756	716
add	Edge		620	660
add	Edge		799	839
add	Edge		421	461
add	Edge		114	154
add	Edge		998	958
add	Edge		259	299
add	Edge		864	904
add	Edge		1566	1526
add	Edge		1326	1366
add	Edge		1292	1252
add	Edge		1452	1492
add	Edge		1405	1406
add	Edge		1124	1123
add	Edge		462	502
add	Edge		914	874
add	Edge		624	584
add	Edge		700	660
add	Edge		1469	1468
add	Edge		1131	1130
add	Edge		517	477
add	Edge		1594	1595
add	Edge		740	700
add	Edge		701	741
add	Edge		542	502
add	Edge		749	709
add	Edge		635	675
add	Edge		357	317
add	Edge		437	477
add	Edge		1098	1058
add	Edge		1303	1343
add	Edge		1318	1358
add	Edge		1435	1475
add	Edge		482	483
add	Edge		346	347
add	Edge		691	692
add	Edge		534	535
add	Edge		540	541
add	Edge		818	819
add	Edge		497	498
add	Edge		766	765
add	Edge		294	293
add	Edge		738	739
add	Edge		238	239
add	Edge		932	933
add	Edge		423	463
add	Edge		380	381
add	Edge		830	831
add	Edge		157	158
add	Edge		636	637
add	Edge		245	244
add	Edge		881	880
add	Edge		793	794
add	Edge		868	867
add	Edge		797	837
add	Edge		593	633
add	Edge		396	395
add	Edge		143	142
add	Edge		1036	996
add	Edge		840	800
add	Edge		1453	1413
add	Edge		1310	1350
add	Edge		1490	1489
add	Edge		782	822
add	Edge		399	439
add	Edge		901	861
add	Edge		714	754
add	Edge		322	362
add	Edge		782	742
add	Edge		350	390
add	Edge		1249	1289
add	Edge		1083	1043
add	Edge		1307	1347
add	Edge		1438	1398
add	Edge		1465	1505
add	Edge		944	984
add	Edge		1173	1133
add	Edge		462	422
add	Edge		363	323
add	Edge		715	755
add	Edge		999	959
add	Edge		1207	1247
add	Edge		876	916
add	Edge		1219	1179
add	Edge		1112	1072
add	Edge		1431	1391
add	Edge		1079	1119
add	Edge		261	301
add	Edge		1117	1157
add	Edge		1288	1328
add	Edge		1299	1259
add	Edge		1096	1056
add	Edge		893	894
add	Edge		725	726
add	Edge		533	532
add	Edge		967	968
add	Edge		435	434
add	Edge		651	652
add	Edge		451	452
add	Edge		144	145
add	Edge		495	496
add	Edge		931	930
add	Edge		386	387
add	Edge		525	526
add	Edge		257	258
add	Edge		778	779
add	Edge		934	935
add	Edge		292	291
add	Edge		543	542
add	Edge		295	296
add	Edge		521	522
add	Edge		774	775
add	Edge		281	280
add	Edge		587	586
add	Edge		300	301
add	Edge		780	781
add	Edge		536	537
add	Edge		764	763
add	Edge		979	978
add	Edge		488	489
add	Edge		554	553
add	Edge		397	398
add	Edge		623	624
add	Edge		877	876
add	Edge		484	485
add	Edge		394	393
add	Edge		141	140
add	Edge		628	627
add	Edge		640	641
add	Edge		865	866
add	Edge		382	383
add	Edge		246	247
add	Edge		312	311
add	Edge		792	791
add	Edge		638	639
add	Edge		882	883
add	Edge		156	155
add	Edge		241	240
add	Edge		579	578
add	Edge		1585	1545
add	Edge		992	991
add	Edge		1165	1125
add	Edge		677	676
add	Edge		823	824
add	Edge		214	213
add	Edge		975	974
add	Edge		971	970
add	Edge		582	583
add	Edge		809	808
add	Edge		285	284
add	Edge		340	341
add	Edge		491	492
add	Edge		455	456
add	Edge		723	724
add	Edge		734	735
add	Edge		977	976
add	Edge		825	826
add	Edge		105	104
add	Edge		149	148
add	Edge		693	694
add	Edge		584	585
add	Edge		962	961
add	Edge		732	733
add	Edge		103	102
add	Edge		768	767
add	Edge		100	101
add	Edge		251	252
add	Edge		388	389
add	Edge		287	286
add	Edge		695	696
add	Edge		697	698
add	Edge		254	253
add	Edge		722	721
add	Edge		730	731
add	Edge		454	453
add	Edge		527	528
add	Edge		344	345
add	Edge		737	736
add	Edge		338	339
add	Edge		963	964
add	Edge		980	981
add	Edge		827	828
add	Edge		973	972
add	Edge		936	937
add	Edge		939	938
add	Edge		327	328
add	Edge		297	298
add	Edge		480	481
add	Edge		343	342
add	Edge		580	581
add	Edge		1459	1419
add	Edge		568	567
add	Edge		326	325
add	Edge		494	493
add	Edge		785	784
add	Edge		596	595
add	Edge		438	439
add	Edge		925	926
add	Edge		682	683
add	Edge		356	355
add	Edge		352	351
add	Edge		196	195
add	Edge		442	443
add	Edge		666	665
add	Edge		686	687
add	Edge		183	182
add	Edge		202	203
add	Edge		678	679
add	Edge		112	111
add	Edge		632	633
add	Edge		425	426
add	Edge		873	872
add	Edge		838	839
add	Edge		187	186
add	Edge		116	115
add	Edge		821	822
add	Edge		1091	1051
add	Edge		834	835
add	Edge		592	591
add	Edge		909	908
add	Edge		445	444
add	Edge		114	113
add	Edge		593	594
add	Edge		685	684
add	Edge		668	667
add	Edge		427	428
add	Edge		184	185
add	Edge		197	198
add	Edge		837	836
add	Edge		337	336
add	Edge		927	928
add	Edge		631	630
add	Edge		289	288
add	Edge		353	354
add	Edge		680	681
add	Edge		151	152
add	Edge		392	391
add	Edge		441	440
add	Edge		634	635
add	Edge		194	193
add	Edge		862	861
add	Edge		621	622
add	Edge		907	906
add	Edge		242	243
add	Edge		875	874
add	Edge		201	200
add	Edge		597	598
add	Edge		188	189
add	Edge		436	437
add	Edge		796	795
add	Edge		358	357
add	Edge		833	832
add	Edge		923	924
add	Edge		423	424
add	Edge		384	385
add	Edge		211	212
add	Edge		255	256
add	Edge		842	841
add	Edge		464	465
add	Edge		965	966
add	Edge		588	589
add	Edge		283	282
add	Edge		777	776
add	Edge		891	892
add	Edge		153	154
add	Edge		228	227
add	Edge		922	921
add	Edge		864	863
add	Edge		184	224
add	Edge		878	879
add	Edge		308	307
add	Edge		486	487
add	Edge		1540	1539
add	Edge		1260	1220
add	Edge		1527	1526
add	Edge		1392	1352
add	Edge		1568	1569
add	Edge		1002	1003
add	Edge		1290	1289
add	Edge		1007	1047
add	Edge		1044	1004
add	Edge		1376	1375
add	Edge		1373	1333
add	Edge		1312	1272
add	Edge		905	865
add	Edge		1090	1050
add	Edge		1356	1357
add	Edge		1488	1489
add	Edge		1180	1140
add	Edge		288	328
add	Edge		1553	1552
add	Edge		1324	1323
add	Edge		1019	1018
add	Edge		1013	1012
add	Edge		1145	1144
add	Edge		1510	1511
add	Edge		1206	1205
add	Edge		1234	1233
add	Edge		1516	1517
add	Edge		1340	1300
add	Edge		1444	1484
add	Edge		1158	1198
add	Edge		1519	1559
add	Edge		1140	1100
add	Edge		1050	1010
add	Edge		67	107
add	Edge		1503	1543
add	Edge		1309	1349
add	Edge		1459	1460
add	Edge		547	587
add	Edge		402	442
add	Edge		720	760
add	Edge		229	269
add	Edge		800	760
add	Edge		509	510
add	Edge		809	849
add	Edge		1181	1141
add	Edge		1152	1192
add	Edge		1171	1170
add	Edge		1319	1318
add	Edge		402	362
add	Edge		140	180
add	Edge		850	890
add	Edge		1533	1573
add	Edge		1182	1181
add	Edge		1125	1126
add	Edge		1423	1383
add	Edge		1001	1002
add	Edge		1196	1236
add	Edge		1071	1111
add	Edge		1064	1104
add	Edge		7	8
add	Edge		1106	1107
add	Edge		1067	1027
add	Edge		1551	1552
add	Edge		12	52
add	Edge		34	74
add	Edge		1269	1270
add	Edge		700	699
add	Edge		731	771
add	Edge		413	453
add	Edge		24	64
add	Edge		218	178
add	Edge		218	258
add	Edge		576	536
add	Edge		86	46
add	Edge		1363	1323
add	Edge		305	265
add	Edge		1444	1445
add	Edge		637	597
add	Edge		557	597
add	Edge		1511	1551
add	Edge		1477	1517
add	Edge		1169	1209
add	Edge		1201	1202
add	Edge		151	191
add	Edge		1535	1495
add	Edge		599	559
add	Edge		1089	1049
add	Edge		1117	1077
add	Edge		1165	1205
add	Edge		1528	1488
add	Edge		1436	1396
add	Edge		1233	1232
add	Edge		1228	1188
add	Edge		1304	1264
add	Edge		1230	1190
add	Edge		80	120
add	Edge		1425	1426
add	Edge		1549	1550
add	Edge		415	455
add	Edge		10	50
add	Edge		216	256
add	Edge		466	426
add	Edge		148	108
add	Edge		852	892
add	Edge		534	574
add	Edge		205	245
add	Edge		841	881
add	Edge		404	444
add	Edge		523	563
add	Edge		881	921
add	Edge		1258	1218
add	Edge		1058	1018
add	Edge		1184	1144
add	Edge		1302	1342
add	Edge		1166	1126
add	Edge		1474	1434
add	Edge		1386	1387
add	Edge		1137	1136
add	Edge		610	570
add	Edge		743	783
add	Edge		545	585
add	Edge		1243	1203
add	Edge		1319	1359
add	Edge		1382	1342
add	Edge		1007	967
add	Edge		1357	1397
add	Edge		61	101
add	Edge		1535	1575
add	Edge		1258	1298
add	Edge		1416	1456
add	Edge		1021	981
add	Edge		72	32
add	Edge		1170	1169
add	Edge		309	269
add	Edge		297	337
add	Edge		735	695
add	Edge		1516	1556
add	Edge		1521	1520
add	Edge		1571	1570
add	Edge		1438	1437
add	Edge		1277	1237
add	Edge		1193	1194
add	Edge		1363	1364
add	Edge		1448	1449
add	Edge		1144	1143
add	Edge		1313	1314
add	Edge		370	369
add	Edge		1240	1280
add	Edge		1093	1053
add	Edge		1075	1074
add	Edge		1568	1567
add	Edge		1148	1149
add	Edge		1483	1482
add	Edge		94	54
add	Edge		1556	1557
add	Edge		1502	1501
add	Edge		1218	1217
add	Edge		1375	1374
add	Edge		1506	1507
add	Edge		1402	1401
add	Edge		1433	1432
add	Edge		1268	1267
add	Edge		1499	1498
add	Edge		270	269
add	Edge		62	22
add	Edge		406	366
add	Edge		1320	1321
add	Edge		84	44
add	Edge		1495	1494
add	Edge		1084	1044
add	Edge		1513	1514
add	Edge		731	691
add	Edge		1252	1251
add	Edge		1113	1114
add	Edge		1055	1056
add	Edge		1230	1231
add	Edge		1447	1407
add	Edge		1067	1068
add	Edge		1076	1077
add	Edge		1586	1587
add	Edge		1018	1017
add	Edge		729	730
add	Edge		939	940
add	Edge		1579	1539
add	Edge		629	630
add	Edge		259	260
add	Edge		56	96
add	Edge		1346	1386
add	Edge		1468	1467
add	Edge		1254	1214
add	Edge		1394	1393
add	Edge		1248	1249
add	Edge		1299	1298
add	Edge		149	150
add	Edge		819	820
add	Edge		404	364
add	Edge		523	483
add	Edge		249	250
add	Edge		614	574
add	Edge		71	111
add	Edge		671	711
add	Edge		1155	1115
add	Edge		1223	1263
add	Edge		1348	1308
add	Edge		823	783
add	Edge		386	426
add	Edge		408	368
add	Edge		1445	1485
add	Edge		1065	1025
add	Edge		1542	1582
add	Edge		993	1033
add	Edge		1180	1179
add	Edge		544	504
add	Edge		241	281
add	Edge		673	633
add	Edge		127	167
add	Edge		1244	1245
add	Edge		1051	1052
add	Edge		1253	1252
add	Edge		543	503
add	Edge		1175	1176
add	Edge		126	166
add	Edge		242	282
add	Edge		240	280
add	Edge		471	431
add	Edge		545	505
add	Edge		1131	1132
add	Edge		1420	1380
add	Edge		290	289
add	Edge		1439	1399
add	Edge		128	168
add	Edge		3	4
add	Edge		1061	1101
add	Edge		1025	1024
add	Edge		58	98
add	Edge		1512	1472
add	Edge		1395	1396
add	Edge		752	792
add	Edge		851	811
add	Edge		351	311
add	Edge		434	474
add	Edge		326	366
add	Edge		1371	1370
add	Edge		1197	1198
add	Edge		1563	1564
add	Edge		980	940
add	Edge		489	449
add	Edge		305	345
add	Edge		850	810
add	Edge		350	310
add	Edge		303	343
add	Edge		664	624
add	Edge		121	161
add	Edge		359	319
add	Edge		1282	1322
add	Edge		352	312
add	Edge		433	473
add	Edge		287	247
add	Edge		1261	1301
add	Edge		1306	1307
add	Edge		1451	1450
add	Edge		358	318
add	Edge		754	794
add	Edge		657	697
add	Edge		512	552
add	Edge		129	169
add	Edge		120	160
add	Edge		625	665
add	Edge		368	328
add	Edge		447	487
add	Edge		910	870
add	Edge		1130	1129
add	Edge		1034	994
add	Edge		472	432
add	Edge		313	353
add	Edge		288	248
add	Edge		546	506
add	Edge		631	671
add	Edge		1373	1374
add	Edge		1063	1062
add	Edge		267	307
add	Edge		686	726
add	Edge		635	595
add	Edge		1181	1180
add	Edge		1255	1256
add	Edge		159	119
add	Edge		919	959
add	Edge		610	650
add	Edge		655	695
add	Edge		510	550
add	Edge		970	930
add	Edge		207	247
add	Edge		850	849
add	Edge		479	439
add	Edge		139	140
add	Edge		593	553
add	Edge		627	667
add	Edge		1050	1049
add	Edge		565	605
add	Edge		220	180
add	Edge		612	572
add	Edge		424	464
add	Edge		816	856
add	Edge		1409	1369
add	Edge		1295	1335
add	Edge		554	594
add	Edge		857	897
add	Edge		971	931
add	Edge		289	249
add	Edge		740	780
add	Edge		1284	1324
add	Edge		1291	1331
add	Edge		1537	1497
add	Edge		1515	1475
add	Edge		626	666
add	Edge		592	552
add	Edge		5	6
add	Edge		2	1
add	Edge		1420	1419
add	Edge		1091	1131
add	Edge		1442	1482
add	Edge		973	1013
add	Edge		121	81
add	Edge		59	19
add	Edge		428	388
add	Edge		490	489
add	Edge		20	60
add	Edge		42	82
add	Edge		1216	1176
add	Edge		1118	1158
add	Edge		1571	1572
add	Edge		975	1015
add	Edge		1429	1389
add	Edge		969	970
add	Edge		809	810
add	Edge		1219	1220
add	Edge		710	709
add	Edge		390	389
add	Edge		14	54
add	Edge		36	76
add	Edge		590	589
add	Edge		609	610
add	Edge		693	733
add	Edge		1010	970
add	Edge		1524	1484
add	Edge		1055	1054
add	Edge		72	112
add	Edge		1038	1078
add	Edge		1562	1522
add	Edge		229	189
add	Edge		377	417
add	Edge		1295	1255
add	Edge		1416	1376
add	Edge		1086	1046
add	Edge		1361	1321
add	Edge		1317	1277
add	Edge		90	50
add	Edge		830	829
add	Edge		56	16
add	Edge		78	38
add	Edge		67	27
add	Edge		89	49
add	Edge		81	41
add	Edge		1228	1268
add	Edge		1019	1059
add	Edge		1354	1394
add	Edge		1185	1145
add	Edge		983	1023
add	Edge		1448	1488
add	Edge		1262	1222
add	Edge		70	30
add	Edge		26	66
add	Edge		55	15
add	Edge		37	77
add	Edge		684	724
add	Edge		88	48
add	Edge		40	80
add	Edge		1169	1129
add	Edge		1455	1495
add	Edge		373	413
add	Edge		1199	1239
add	Edge		1089	1129
add	Edge		1418	1378
add	Edge		1279	1239
add	Edge		1514	1554
add	Edge		18	58
add	Edge		375	415
add	Edge		69	29
add	Edge		1052	1012
add	Edge		1205	1245
add	Edge		1415	1455
add	Edge		1581	1541
add	Edge		1547	1587
add	Edge		1075	1035
add	Edge		1338	1378
add	Edge		1042	1002
add	Edge		720	680
add	Edge		51	91
add	Edge		99	59
add	Edge		79	39
add	Edge		68	28
add	Edge		57	17
add	Edge		536	496
add	Edge		1558	1598
add	Edge		1183	1223
add	Edge		1268	1308
add	Edge		1084	1124
add	Edge		1287	1327
add	Edge		309	310
add	Edge		92	52
add	Edge		379	419
add	Edge		603	563
add	Edge		123	83
add	Edge		538	498
add	Edge		534	494
add	Edge		470	430
add	Edge		991	951
add	Edge		525	485
add	Edge		1329	1369
add	Edge		1398	1358
add	Edge		1079	1039
add	Edge		1120	1121
add	Edge		1347	1387
add	Edge		1534	1574
add	Edge		673	713
add	Edge		1186	1146
add	Edge		1127	1087
add	Edge		1075	1115
add	Edge		1296	1297
add	Edge		1373	1413
add	Edge		1160	1200
add	Edge		1501	1541
add	Edge		50	49
add	Edge		1019	1020
add	Edge		1473	1472
add	Edge		1457	1497
add	Edge		1154	1194
add	Edge		1288	1248
add	Edge		1022	1062
add	Edge		1219	1259
add	Edge		1468	1428
add	Edge		122	162
add	Edge		246	286
add	Edge		548	508
add	Edge		792	832
add	Edge		684	644
add	Edge		529	489
add	Edge		231	191
add	Edge		163	123
add	Edge		1011	1010
add	Edge		1507	1547
add	Edge		1061	1021
add	Edge		1461	1421
add	Edge		164	124
add	Edge		590	550
add	Edge		263	303
add	Edge		285	245
add	Edge		509	549
add	Edge		599	639
add	Edge		547	507
add	Edge		812	852
add	Edge		1246	1286
add	Edge		1480	1440
add	Edge		830	870
add	Edge		379	339
add	Edge		284	244
add	Edge		686	646
add	Edge		551	591
add	Edge		737	697
add	Edge		165	125
add	Edge		682	722
add	Edge		458	498
add	Edge		853	813
add	Edge		830	790
add	Edge		1531	1571
add	Edge		1458	1498
add	Edge		1360	1400
add	Edge		1508	1548
add	Edge		216	176
add	Edge		527	487
add	Edge		879	919
add	Edge		908	948
add	Edge		834	794
add	Edge		868	908
add	Edge		283	243
add	Edge		1113	1153
add	Edge		1341	1381
add	Edge		1055	1095
add	Edge		1285	1245
add	Edge		1252	1212
add	Edge		130	90
add	Edge		1255	1215
add	Edge		1092	1052
add	Edge		1551	1591
add	Edge		1538	1578
add	Edge		1362	1322
add	Edge		1178	1138
add	Edge		1043	1003
add	Edge		1149	1109
add	Edge		525	565
add	Edge		855	815
add	Edge		337	377
add	Edge		809	769
add	Edge		424	384
add	Edge		858	898
add	Edge		859	899
add	Edge		1339	1379
add	Edge		1170	1130
add	Edge		1192	1232
add	Edge		1439	1479
add	Edge		1261	1221
add	Edge		628	668
add	Edge		814	854
add	Edge		1508	1468
add	Edge		1461	1501
add	Edge		1394	1434
add	Edge		1163	1203
add	Edge		1171	1131
add	Edge		1354	1314
add	Edge		1185	1225
add	Edge		1430	1390
add	Edge		1082	1122
add	Edge		1454	1414
add	Edge		1340	1380
add	Edge		104	64
add	Edge		950	949
add	Edge		1297	1337
add	Edge		122	82
add	Edge		1028	1068
add	Edge		1345	1385
add	Edge		1554	1594
add	Edge		1422	1462
add	Edge		601	561
add	Edge		616	576
add	Edge		69	109
add	Edge		1066	1026
add	Edge		1408	1448
add	Edge		20	19
add	Edge		1242	1202
add	Edge		59	60
add	Edge		1490	1450
add	Edge		1176	1136
add	Edge		1524	1564
add	Edge		1177	1137
add	Edge		1180	1220
add	Edge		1561	1521
add	Edge		1066	1106
add	Edge		1161	1121
add	Edge		1315	1275
add	Edge		1425	1385
add	Edge		549	550
add	Edge		1153	1154
add	Edge		1580	1540
add	Edge		69	70
add	Edge		90	89
add	Edge		380	379
add	Edge		339	299
add	Edge		1405	1445
add	Edge		1463	1423
add	Edge		1371	1331
add	Edge		1179	1139
add	Edge		1102	1142
add	Edge		1186	1187
add	Edge		1085	1045
add	Edge		1557	1597
add	Edge		1351	1391
add	Edge		1162	1122
add	Edge		1432	1472
add	Edge		1119	1159
add	Edge		1315	1355
add	Edge		1441	1481
add	Edge		1515	1555
add	Edge		1241	1281
add	Edge		1306	1346
add	Edge		1425	1465
add	Edge		1275	1235
add	Edge		1278	1238
add	Edge		1143	1103
add	Edge		29	30
add	Edge		1146	1106
add	Edge		1438	1478
add	Edge		1232	1272
add	Edge		113	73
add	Edge		1032	1072